id,name,category
1894,Levomoprolol Hydrochloride,medicine
834,Captodiamine (HCl),medicine
870,Cyclodextrin,medicine
1268,Sodium Borate,medicine
1269,Bees Wax,medicine
1003,Ruscogenin,medicine
1270,Arachis Oil (Peanut Oil),medicine
876,Dibromopropamidine (Isethionate),medicine
921,Mercurochrome,medicine
1004,Saccharomyces,medicine
1701,Poractant Alfa,medicine
1736,Palivizumab,medicine
1085,Trimebutine (Maleate),medicine
1086,Trimetazidine (Di HCl),medicine
1075,Tiropramide (HCl),medicine
1271,Trypsin (Protease),medicine
1113,Fenoverine,medicine
1097,Vinpocetine,medicine
2065,Scorpion Venom Antisera,medicine
1774,Padimate-O,medicine
1385,Dimethyl Amino Ethanol Pyroglutamate,medicine
2001,Niflumic Acid,medicine
2074,Sulphurated Lime,medicine
1326,Ethacridine (Lactate),medicine
1327,Ethenzamide,medicine
1339,Batroxobin,medicine
1341,Pepsin,medicine
510,Niclosamide,medicine
914,Mebuprofen,medicine
1069,Tibezonium (I),medicine
1168,Lactoserum,medicine
1194,Nutritional Tonic,medicine
1324,Senega,medicine
1329,Carmellose,medicine
1346,Sodium Glycerophosphate,medicine
1359,Amino Ethyl Sulfonic Acid,medicine
1378,Kola Alcoholate,medicine
1553,Unoprostone,medicine
1568,Guaimesal,medicine
1578,Dropropizine,medicine
1596,Rubidium Iodide,medicine
788,Alkylglycerol,medicine
923,Mesterolone,medicine
2213,Acrinol,medicine
2299,Lactose,medicine
1347,Soflurane,medicine
1089,Tromantadine (HCl),medicine
1351,Aminoheptone,medicine
1414,Silicone,medicine
1221,Sucrose,medicine
1325,Fenpiverinium (Br),medicine
1296,Ambroxol (HCl),medicine
1297,Cod Liver Oil,medicine
1298,Manganese Sulphate,medicine
1313,Ferric Pyrophosphate,medicine
1772,Sodium Monofluorophosphate,medicine
1962,Hypromellose,medicine
2000,Acefyllin Piperazine,medicine
25,Acarbose,medicine
26,Acebutolol,medicine
43,Amantadine (HCl),medicine
27,Acetazolamide (Na),medicine
28,Acetylcysteine,medicine
29,Aclarubicin (HCl),medicine
30,Actinomycin D,medicine
31,Acyclovir,medicine
32,Adrenaline,medicine
356,Hexobarbitone (Na),medicine
33,Albendazole,medicine
38,Allopurinol,medicine
34,Alcuronium (Cl),medicine
35,Alfacalcidol,medicine
36,Alfentanil (HCl),medicine
37,Alginic Acid,medicine
39,Alprostadil,medicine
40,Alteplase,medicine
41,Aluminium Acetate,medicine
42,Aluminium Hydroxide and Oxide,medicine
44,Amethocaine,medicine
45,Amikacin (Sulphate),medicine
46,Amiloride (HCl),medicine
47,Amiodarone (HCl),medicine
48,Amitriptyline (HCl),medicine
78,Bendrofluazide,medicine
49,Amlodipine (Besylate),medicine
50,Amodiaquine,medicine
51,Amoxicillin,medicine
52,Amphotericin B,medicine
53,Ampicillin,medicine
54,Amsacrine,medicine
1230,Dequalinium (Cl),medicine
55,Anistreplase,medicine
75,Beclamide,medicine
56,Antilymphocyte Immune Globulin,medicine
57,Aprotinin,medicine
58,Argipressin,medicine
59,Ascorbic Acid,medicine
60,Aspirin,medicine
61,Astemizole,medicine
62,Atenolol,medicine
63,Atracurium (Besylate),medicine
64,Atropine (Sulphate),medicine
65,Auranofin,medicine
66,Aurothiomalate,medicine
1258,Terpin Hydrate,medicine
97,Biperiden (HCl),medicine
67,Azacitidine,medicine
68,Azatadine (Maleate),medicine
69,Azathioprine,medicine
70,Azlocillin (Na),medicine
71,Aztreonam,medicine
72,Bacitracin,medicine
73,Baclofen,medicine
74,Barium Sulphate,medicine
76,Beclomethasone (Dipropionate),medicine
79,Benorylate,medicine
1396,Pertussis Toxoid,medicine
127,Carbaryl,medicine
80,Benoxaprofen,medicine
89,Bephenium Hydroxynaphthoate,medicine
81,Benperidol,medicine
82,Benserazide (HCl),medicine
83,Benzalkonium (Cl),medicine
84,Benzathine Penicillin,medicine
85,Benzhexol (HCl),medicine
86,Benztropine (Mesylate),medicine
87,Benzyl Benzoate,medicine
1397,Buzepide Methiodide,medicine
88,Benzylpenicillin (Na or K),medicine
90,Betahistine (HCl),medicine
92,Betaxolol (HCl),medicine
93,Bethanechol (Cl),medicine
94,Bethanidine (Sulphate),medicine
95,Bezafibrate,medicine
96,Biotin,medicine
1398,Clocinizine (HCl),medicine
98,Bisacodyl,medicine
99,Bismuth Salts,medicine
100,Bisoprolol (Fumarate),medicine
1399,Chlorocarbachol,medicine
101,Bleomycin,medicine
102,Bovine Insulin,medicine
103,Bretylium (Tosylate),medicine
104,Bromocriptine (Mesylate),medicine
126,Carbamazepine,medicine
1247,Parachlorometaxylenol,medicine
105,Brompheniramine (Maleate),medicine
174,Cinnarizine,medicine
106,Buclizine (HCl),medicine
107,Budesonide,medicine
108,Bumetanide,medicine
109,Bupivacaine (HCl),medicine
110,Buprenorphine (HCl),medicine
111,Buserelin (Acetate),medicine
112,Buspirone (HCl),medicine
113,Busulphan,medicine
114,Cabergoline,medicine
115,Caffeine,medicine
116,Calamine,medicine
1820,Otilonium Bromide,medicine
117,Calcifediol,medicine
118,Calciferol,medicine
119,Calcitonin,medicine
120,Calcitriol,medicine
121,Calcium Carbonate,medicine
122,Calcium Gluconate,medicine
123,Calcium Pantothenate,medicine
124,Cannabis,medicine
125,Captopril,medicine
131,Carbimazole,medicine
128,Carbenicillin (Na),medicine
129,Carbenoxolone (Na),medicine
130,Carbidopa,medicine
221,Desogestrel,medicine
2330,Polyethylene Glycol 400,medicine
132,Carbocysteine,medicine
133,Carboplatin,medicine
134,Carfecillin (Na),medicine
135,Carmustine,medicine
136,Cascara,medicine
137,Cefaclor (Monohydrate),medicine
138,Cefamandole (Na),medicine
139,Cefixime,medicine
140,Cefotaxime,medicine
141,Cefotetan,medicine
142,Cefoxitin,medicine
144,Ceftazidime,medicine
145,Ceftizoxime (Na),medicine
146,Ceftriaxone (Na),medicine
148,Cephalexin (Monohydrate),medicine
1259,Talc (Talcum),medicine
165,Chlorpromazine (HCl),medicine
149,Cephaloridine,medicine
150,Cephalothin (Na),medicine
151,Cephazolin (Na),medicine
152,Cephradine,medicine
153,Cetrimide,medicine
154,Charcoal (Activated),medicine
155,Chenodeoxycholic Acid,medicine
156,Chloral Hydrate,medicine
157,Chlorambucil,medicine
158,Chloramphenicol,medicine
159,Chlordiazepoxide (HCl),medicine
160,Chlorhexidine,medicine
161,Chlormethiazole (Edisylate),medicine
162,Chloroquine,medicine
163,Chlorothiazide,medicine
164,Chlorpheniramine (Maleate),medicine
166,Chlorpropamide,medicine
167,Chlorprothixene,medicine
168,Chlortetracycline (HCl),medicine
169,Chlorthalidone,medicine
170,Cholestyramine,medicine
171,Choline Magnesium Trisalicylate,medicine
172,Chorionic Gonadotrophin,medicine
173,Cimetidine (HCl),medicine
175,Cinoxacin,medicine
177,Cisplatin,medicine
555,Peritoneal Dialysis Fluids,medicine
759,Xylitol,medicine
178,Clavulanic Acid,medicine
180,Clobazam,medicine
181,Clobetasol (Propionate),medicine
182,Clobetasone (Butyrate),medicine
183,Clodronate,medicine
184,Clofazimine,medicine
185,Clofibrate,medicine
186,Clomiphene (Citrate),medicine
187,Clomipramine (HCl),medicine
188,Clonazepam,medicine
189,Clonidine (HCl),medicine
193,Cloxacillin,medicine
190,Clopamide,medicine
195,Coal Tar,medicine
191,Clorazepate (K),medicine
192,Clotrimazole,medicine
194,Clozapine,medicine
196,Cocaine,medicine
197,Codeine,medicine
198,Colchicine,medicine
199,Colestipol (HCl),medicine
200,Colistin (Sulphate & Sulphomethate Na),medicine
201,Cortisone (Acetate),medicine
202,Co-Trimoxazole,medicine
258,Dithranol,medicine
203,Cyanocobalamin,medicine
204,Cyclopenthiazide,medicine
205,Cyclophosphamide,medicine
206,Cyclosporin A,medicine
266,Doxorubicin (HCl),medicine
207,Cyproheptadine (HCl),medicine
208,Cyproterone (Acetate),medicine
209,Cytarabine (HCl),medicine
210,Dacarbazine,medicine
211,Danazol,medicine
212,Dantrolene (Na),medicine
782,Acriflavine,medicine
213,Dapsone,medicine
214,Daunorubicin (HCl),medicine
224,Dexfenfluramine (HCl),medicine
215,Debrisoquine (Sulphate),medicine
216,Dehydroemetine (HCl),medicine
217,Demeclocycline (HCl),medicine
218,Deferoxamine,medicine
1384,Methorphinan,medicine
219,Desipramine (HCl),medicine
220,Desmopressin (Acetate),medicine
222,Dexamethasone,medicine
223,Dexamphetamine (Sulphate),medicine
225,Dextran,medicine
226,Dextromethorphan,medicine
227,Dextromoramide (Tartrate),medicine
228,Dextropropoxyphene,medicine
229,Diamorphine (HCl),medicine
231,Diazepam,medicine
232,Diazoxide,medicine
233,Diclofenac (Na),medicine
234,Dicobalt Edetate,medicine
235,Dicyclomine (HCl),medicine
236,Dienoestrol,medicine
237,Diethylcarbamazine (Citrate),medicine
238,Diethylpropion (HCl),medicine
248,Dinoprost,medicine
239,Diflunisal,medicine
240,Digitoxin,medicine
245,Diltiazem (HCl),medicine
241,Digoxin,medicine
242,Dihydrocodeine (Tartrate),medicine
243,Dihydroergotamine (Mesylate),medicine
244,Diloxanide (Furoate),medicine
246,Dimercaprol,medicine
1260,Sodium Succinate,medicine
249,Dinoprostone,medicine
276,Enflurane,medicine
254,Disodium Edetate (Dihydrate),medicine
250,Diphenhydramine,medicine
251,Diphenoxylate (HCl),medicine
252,Dipipanone (HCl),medicine
253,Dipyridamole,medicine
255,Disopyramide,medicine
256,Distigmine (Br),medicine
257,Disulfiram,medicine
259,Dobutamine (HCl),medicine
260,Domperidone,medicine
827,Butoconazole (Nitrate),medicine
261,Dopamine (HCl),medicine
267,Doxycycline,medicine
268,Droperidol,medicine
262,Dothiepin (HCl),medicine
263,Doxapram,medicine
264,Doxazosin (Mesylate),medicine
265,Doxepin (HCl),medicine
269,Drostanolone (Propionate),medicine
270,Dydrogesterone,medicine
271,Econazole (Nitrate),medicine
272,Edrophonium (Cl),medicine
273,Emetine (HCl),medicine
274,Enalapril (Maleate),medicine
275,Encainide (HCl),medicine
1406,Chloride,medicine
277,Enoxacin,medicine
846,Cefpirome,medicine
278,Ephedrine,medicine
279,Epoetin,medicine
280,Epoprostenol (Na),medicine
329,Fructose,medicine
281,Ergometrine (Maleate),medicine
852,Ciclopirox Olamine,medicine
282,Ergotamine (Tartrate),medicine
283,Erythromycin,medicine
284,Ethacrynic Acid,medicine
285,Ethambutol (HCl),medicine
857,Citrulline,medicine
286,Ether,medicine
866,Co-Proxamol,medicine
287,Ethinyloestradiol,medicine
288,Ethionamide,medicine
289,Ethosuximide,medicine
1288,Krameria,medicine
306,Flecainide (Acetate),medicine
294,Etomidate,medicine
290,Alcohol,medicine
291,Ethynodiol (Diacetate),medicine
292,Etidronate (Disodium),medicine
293,Etodolac,medicine
295,Etoposide,medicine
296,Etretinate,medicine
297,Factor VIII,medicine
1415,Phenyl Azodiaminopyradine,medicine
298,Famotidine,medicine
299,Felodipine,medicine
300,Fenbufen,medicine
301,Fenfluramine (HCl),medicine
947,Oxatomide,medicine
307,Floxacillin (Na),medicine
302,Fenoprofen,medicine
303,Fenoterol,medicine
304,Fentanyl (Citrate),medicine
305,Filgrastim,medicine
308,Fluocinolone (Acetonide),medicine
309,Fluocinonide (Topical),medicine
314,Fluoride,medicine
319,Flurazepam (HCl),medicine
320,Flurbiprofen,medicine
310,Flucytosine,medicine
311,Fludrocortisone (Acetate),medicine
312,Flumazenil,medicine
313,Fluorescein,medicine
867,Croconazole (HCl),medicine
315,Fluorouracil,medicine
316,Fluoxetine (HCl),medicine
317,Flupenthixol (HCl and Decanoate),medicine
318,Fluphenazine,medicine
321,Flutamide,medicine
322,Fluvoxamine (Maleate),medicine
323,Folic Acid,medicine
324,Folinic Acid,medicine
325,Formaldehyde (Solution),medicine
326,Foscarnet (Na),medicine
327,Fosfestrol,medicine
328,Framycetin (Sulphate),medicine
330,Frusemide or Furosemide,medicine
331,Fusidic Acid,medicine
1884,Shark liver oil,medicine
332,Ganciclovir (Na),medicine
426,Lofepramine (HCl),medicine
333,Gelatin Plasma Substitutes,medicine
334,Gemeprost,medicine
335,Gemfibrozil,medicine
336,Gentamicin,medicine
337,Glibenclamide,medicine
338,Glibornuride,medicine
339,Gliclazide,medicine
340,Glipizide,medicine
341,Gliquidone,medicine
342,Glucose,medicine
343,Glutaraldehyde,medicine
344,Glyceryl Trinitrate,medicine
345,Glymidine,medicine
346,Gonadorelin (HCl),medicine
347,Goserelin (Acetate),medicine
348,Gramicidin,medicine
349,Granulocyte Macrophage Colony Stimulating Factor,medicine
350,Griseofulvin,medicine
351,Guanethidine,medicine
352,Haloperidol,medicine
353,Halothane,medicine
354,Heparin (Na) and Heparin (Cl),medicine
355,Hexachlorophane,medicine
357,Homatropine (HBr),medicine
358,Human Albumin,medicine
359,Human Anti-D Immunoglobulin,medicine
360,Human Insulin,medicine
361,Hyaluronidase,medicine
362,Hydralazine (HCl),medicine
363,Hydrochlorothiazide,medicine
365,Hydrocortisone,medicine
423,Lisinopril,medicine
403,Itraconazole,medicine
367,Hydroflumethiazide,medicine
368,Hydroxocobalamin,medicine
369,Hydroxychloroquine (Sulphate),medicine
370,Hydroxyprogesterone,medicine
371,Hydroxyurea,medicine
372,Hyoscine (Butylbromide),medicine
373,Ibuprofen,medicine
374,Ichthammol,medicine
375,Idoxuridine,medicine
376,Ifosfamide,medicine
377,Iloprost,medicine
378,Imipenem,medicine
379,Imipramine (HCl),medicine
380,Indapamide,medicine
381,Indomethacin,medicine
382,Indoramin (HCl),medicine
383,Interferon Alpha,medicine
384,Iodine,medicine
385,Iodine Compounds,medicine
386,Iohexol,medicine
387,Iopanoic Acid,medicine
388,Iotroxate (Meglumine),medicine
389,Ipecac,medicine
418,Lignocaine,medicine
394,Isoflurane,medicine
390,Ipratropium (Br),medicine
391,Iron Salts,medicine
392,Isocarboxazid,medicine
393,Isoetharine,medicine
395,Isoniazid,medicine
396,Isoproterenol,medicine
397,Isosorbide (Dinitrate),medicine
398,Isosorbide 5-Mononitrate,medicine
399,Isotretinoin,medicine
400,Isoxsuprine,medicine
401,Ispaghula,medicine
402,Isradipine,medicine
404,Ivermectin,medicine
405,Kanamycin (Acid Sulphate),medicine
406,Kaolin,medicine
407,Ketamine (HCl),medicine
1344,Pitofenone (HCl),medicine
408,Ketazolam,medicine
409,Ketoconazole,medicine
410,Ketoprofen,medicine
411,Ketotifen (Fumarate),medicine
464,Methotrexate,medicine
412,Labetalol,medicine
413,Lactulose,medicine
414,Latamoxef (Na),medicine
415,Levodopa,medicine
416,Levonorgestrel,medicine
417,Levorphanol,medicine
419,Lincomycin (HCl),medicine
420,Lindane,medicine
421,Liothyronine (Na),medicine
422,Lipid Supplements,medicine
424,Lisuride,medicine
425,Lithium,medicine
427,Loperamide (HCl),medicine
478,Metriphonate,medicine
428,Loratadine,medicine
429,Lorazepam,medicine
430,Lovastatin,medicine
431,Lymecycline,medicine
432,Lynoestrenol,medicine
433,Magnesium Oxides and Hydroxides,medicine
434,Malathion,medicine
435,Mannitol,medicine
1354,Potassium Guaiacolsulphonate,medicine
436,Maprotiline (HCl),medicine
441,Medazepam,medicine
437,Mebendazole,medicine
438,Mebeverine,medicine
439,Mebhydrolin,medicine
440,Mecillinam,medicine
442,Medroxyprogesterone (Acetate),medicine
443,Mefenamic Acid,medicine
1355,Sodium Tartrate,medicine
444,Mefloquine (HCl),medicine
445,Mefruside,medicine
446,Megestrol (Acetate),medicine
447,Melarsoprol,medicine
1356,Choline Bitartrate,medicine
448,Melphalan,medicine
457,Metaraminol,medicine
449,Menotrophin,medicine
450,Meprobamate,medicine
451,Meptazinol,medicine
452,Mequitazine,medicine
453,Mercaptopurine (Monohydrate),medicine
454,Mesalazine,medicine
455,Mesna,medicine
1366,Biodiastase,medicine
456,Mestranol,medicine
458,Metformin (HCl),medicine
459,Methacycline (HCl),medicine
509,Nicardipine,medicine
460,Methadone,medicine
461,Methimazole,medicine
462,Methionine,medicine
463,Methohexitone (Na),medicine
465,Methotrimeprazine (Maleate),medicine
466,Methyclothiazide,medicine
467,Methylcellulose,medicine
468,Methyldopa,medicine
469,Methylene Blue,medicine
470,Methylergometrine (Maleate),medicine
471,Methylphenidate (HCl),medicine
473,Methyprylone,medicine
474,Methysergide (Hydrogen Maleate),medicine
475,Metoclopramide (HCl),medicine
476,Metolazone,medicine
477,Metoprolol (Tartrate),medicine
479,Metronidazole,medicine
480,Metyrapone,medicine
481,Mexiletine,medicine
482,Mezlocillin,medicine
2066,Rabies Antisera,medicine
483,Mianserin,medicine
484,Miconazole (Nitrate),medicine
485,Midazolam,medicine
486,Mifepristone,medicine
2067,Sodium Ioglycamate,medicine
487,Minocycline (HCl),medicine
488,Minoxidil,medicine
489,Misoprostol,medicine
490,Mitomycin C,medicine
491,Mitozantrone (HCl),medicine
492,Molsidomine,medicine
493,Morphine,medicine
495,Mupirocin,medicine
496,Nabumetone,medicine
497,Nadolol,medicine
498,Naftidrofuryl (Oxalate),medicine
499,Nalbuphine (HCl),medicine
2075,Powdered Pituitary,medicine
500,Nalidixic Acid,medicine
512,Nicotine,medicine
501,Naloxone (HCl),medicine
502,Naltrexone,medicine
504,Naproxen,medicine
505,Nedocromil (Na),medicine
506,Nefopam (HCl),medicine
507,Neostigmine,medicine
508,Netilmicin (Sulphate),medicine
511,Nicotinamide,medicine
513,Nicotinic Acid,medicine
514,Nicoumalone,medicine
516,Nifurtimox,medicine
517,Nimodipine,medicine
518,Nitrazepam,medicine
519,Nitrofurantoin,medicine
520,Nitrous Oxide,medicine
521,Nizatidine,medicine
598,Prednisolone and Prednisone,medicine
522,Noradrenaline (Acid Tartrate),medicine
524,Norfloxacin,medicine
525,Nortriptyline (HCl),medicine
526,Noxythiolin,medicine
527,Nystatin,medicine
528,Octreotide (Acetate),medicine
564,Phenoperidine (HCl),medicine
529,Estradiol.,medicine
534,Oral Rehydration Salts (ORS),medicine
531,Olsalazine (Na),medicine
532,Omeprazole,medicine
533,Ondansetron (HCl),medicine
1167,Lactic Acid,medicine
879,Diethylamine (Salicylate),medicine
535,Orciprenaline (Sulphate),medicine
536,Orphenadrine,medicine
964,Phytomenadione,medicine
537,Ouabain,medicine
538,Oxaminiquine,medicine
539,Oxazepam,medicine
541,Oxprenolol (HCl),medicine
542,Oxygen,medicine
543,Oxymetazoline (HCl),medicine
544,Oxytetracycline (Dihydrate),medicine
545,Oxytocin,medicine
546,Pamidronate (Disodium Pentahydrate),medicine
547,Pancuronium (Br),medicine
548,Papaveretum,medicine
549,Papaverine (HCl),medicine
550,Paracetamol,medicine
551,Penicillamine,medicine
552,Pentamidine,medicine
554,Pentobarbitone (Na),medicine
556,Perphenazine,medicine
557,Pethidine (HCl),medicine
558,Phenazocine (HBr),medicine
559,Phenelzine,medicine
1196,Bifonazole,medicine
560,Phenindione,medicine
561,Pheniramine (Maleate),medicine
562,Phenobarbitone,medicine
563,Phenol,medicine
565,Phenoxymethylpenicillin (K),medicine
566,Phentolamine (Mesylate),medicine
567,Phenylbutazone,medicine
568,Phenylephrine (HCl),medicine
569,Phenylpropanolamine (HCl),medicine
570,Phenytoin (Na),medicine
571,Pholcodine,medicine
572,Physostigmine,medicine
573,"Pilocarpine (HCl, Nitrate)",medicine
574,Pimozide,medicine
575,Pinacidil Monohydrate,medicine
576,Pindolol,medicine
577,Piperacillin (Na),medicine
578,Piperazine,medicine
579,Pipothiazine,medicine
580,Pirenzepine (di HCl),medicine
581,Piroxicam,medicine
582,Pivmecillinam (HCl),medicine
583,Pizotifen (Hydrogen Maleate),medicine
584,Podophyllum,medicine
980,Proglumetacin,medicine
589,Potassium Canrenoate,medicine
585,Poldine (Methylsulphate),medicine
586,Polymyxin B (Sulphate),medicine
587,Polythiazide,medicine
588,Porcine Insulin,medicine
590,Potassium Permanganate,medicine
591,Potassium Salts,medicine
592,Practolol,medicine
593,Pralidoxime,medicine
594,Pravastatin (Na),medicine
595,Prazepam,medicine
596,Praziquantel,medicine
1499,Pirbuterol (Acetate),medicine
597,Prazosin,medicine
599,Prilocaine,medicine
600,Primaquine (Phosphate),medicine
658,Silver Sulphadiazine,medicine
601,Primidone,medicine
1007,Selegiline (HCl),medicine
612,Probucol,medicine
613,Procainamide (HCl),medicine
614,Procaine Penicillin,medicine
615,Procarbazine,medicine
616,Prochlorperazine,medicine
617,Procyclidine (HCl),medicine
618,Progesterone,medicine
619,Proguanil (HCl),medicine
622,Promazine (HCl),medicine
623,Promethazine (HCl),medicine
624,Propafenone (HCl),medicine
625,Propantheline (Br),medicine
626,Propofol,medicine
627,Propranolol (HCl),medicine
628,Propyliodone,medicine
629,Propylthiouracil,medicine
679,Streptomycin,medicine
630,Protamine (Sulphate),medicine
631,Prothionamide,medicine
632,Protriptyline (HCl),medicine
633,Pseudoephedrine (HCl),medicine
640,Quinalbarbitone (Na),medicine
635,Pyrazinamide,medicine
636,Pyridostigmine (Br),medicine
637,Pyridoxine,medicine
638,Pyrimethamine,medicine
642,Quinine,medicine
643,Ramipril,medicine
644,Ranitidine,medicine
645,Rauwolfia Reserpine,medicine
646,Retinol (Vitamin A),medicine
647,Ribavirin,medicine
648,Riboflavin (Vitamin B2),medicine
649,Rifampicin,medicine
650,Rimiterol (HBr),medicine
651,Ritodrine (HCl),medicine
652,Albuterol,medicine
653,Salicylic Acid,medicine
655,Selenium (Sulphide),medicine
656,Sennosides,medicine
657,Silver Nitrate,medicine
659,Simvastatin,medicine
660,Sodium Bicarbonate,medicine
661,Sodium Calciumedetate,medicine
662,Sodium Chloride,medicine
1727,Caspofungin,medicine
801,Antazoline,medicine
663,Sodium Cromoglycate,medicine
664,Sodium Nitrite,medicine
665,Sodium Nitroprusside,medicine
666,Sodium Salicylate,medicine
1890,Acetohexamide,medicine
667,Sodium Stibogluconate,medicine
668,Sodium Thiosulphate,medicine
669,Sodium Valproate,medicine
670,Somatropin,medicine
671,Sorbitol,medicine
672,Sotalol (HCl),medicine
673,Spectinomycin (HCl),medicine
674,Spiramycin,medicine
675,Spironolactone,medicine
676,Stanozolol,medicine
677,Stilboestrol,medicine
678,Streptokinase,medicine
680,Streptozotocin,medicine
681,Sucralfate,medicine
682,Sufentanil (Citrate),medicine
684,Sulfadimidine,medicine
694,Sulphur,medicine
784,Aescin,medicine
685,Sulfadoxine,medicine
686,Sulindac,medicine
687,Sulphacetamide,medicine
777,Acefylline,medicine
703,Terodiline (HCl),medicine
688,Sulphadiazine,medicine
689,Sulphamethoxazole,medicine
692,Sulphasalazine,medicine
693,Sulphinpyrazone,medicine
1114,Fenticonazole,medicine
699,Tamoxifen (Citrate),medicine
695,Sulpiride,medicine
696,Sumatriptan,medicine
697,Suramin,medicine
698,Suxamethonium (Cl),medicine
700,Temazepam,medicine
701,Terbutaline,medicine
702,Terfenadine,medicine
704,Testosterone (Esters),medicine
705,Tetracosactrin,medicine
706,Tetracycline (HCl),medicine
994,Repaglinide,medicine
727,Tranexamic Acid,medicine
707,Theophylline,medicine
1891,Acrosoxacin,medicine
708,Thiabendazole,medicine
709,Thiacetazone,medicine
989,Quetiapine,medicine
710,Thiamine HCl (Vitamin B1),medicine
711,Thioguanine,medicine
1892,Adinazolam,medicine
713,Thiopentone (Na),medicine
714,Thioridazine (HCl),medicine
715,Thyroxine (Na),medicine
716,Tiaprofenic Acid,medicine
717,Ticarcillin (di Na),medicine
718,Tienilic Acid,medicine
779,Acetyle Aspartyl Glutamic Acid,medicine
719,Timolol (Maleate),medicine
720,Tinidazole,medicine
721,Tobramycin,medicine
722,Tocainide (HCl),medicine
723,Tocopherol (Vitamin E),medicine
724,Tolazoline (HCl),medicine
725,Tolbutamide,medicine
726,Tolmetin (Na),medicine
728,Tranylcypromine (Sulphate),medicine
729,Trazodone (HCl),medicine
730,Treosulfan,medicine
731,Tretinoin,medicine
732,Triamcinolone,medicine
733,Triamterene,medicine
734,Triazolam,medicine
735,Trifluoperazine (HCl),medicine
736,Trimeprazine (Tartrate),medicine
737,Trimetaphan (Camsylate),medicine
738,Trimethoprim,medicine
1286,Polygeline,medicine
739,Trimipramine (Maleate),medicine
740,Triprolidine (HCl),medicine
749,Vecuronium (Br),medicine
741,Tryptophan,medicine
742,Tubocurarine (Cl),medicine
743,Undecenoic Acid,medicine
744,Urea (Topical),medicine
750,Verapamil (HCl),medicine
745,Urofollitrophin,medicine
746,Urokinase,medicine
747,Ursodeoxycholic Acid,medicine
748,Vancomycin (HCl),medicine
751,Vidarabine (Monohydrate),medicine
752,Vigabatrin,medicine
753,Vinblastine (Sulphate),medicine
754,Vincristine (Sulphate),medicine
755,Vitamin K,medicine
756,Warfarin (Na),medicine
757,Xamoterol (Fumarate),medicine
758,Xipamide,medicine
760,Xylometazoline (HCl),medicine
1287,Allobarbitone,medicine
762,Zidovudine,medicine
763,Zopiclone,medicine
764,Zuclopenthixol,medicine
768,Aminoglutethimide,medicine
769,Ketanserin (Tartrate),medicine
770,Neomycin,medicine
772,Phenoxybenzamine (HCl),medicine
776,Abciximab,medicine
778,Acepromazine (Maleate),medicine
780,Acitretin,medicine
786,Alendronate (Na),medicine
787,Alfuzosin,medicine
789,Allantoin,medicine
1100,Vinorelbine (Tartrate),medicine
790,Almitrine,medicine
791,Alprazolam,medicine
792,Aluminium Chloride Hexahydrate,medicine
1330,Magnesium Carbonate,medicine
948,Oxolinic Acid,medicine
793,Amino Acids,medicine
794,Aminophylline,medicine
795,Aminoprofen,medicine
796,Amisulpride,medicine
1331,Magnesium Glycerophosphate,medicine
799,Sulbactam,medicine
800,Anastrazole,medicine
802,Artemether,medicine
803,Lumefantrine,medicine
805,Atorvastatin,medicine
806,Attapulgite,medicine
807,Azelaic Acid,medicine
808,Azithromycin,medicine
1332,Linseed Oil,medicine
809,Bacampicillin,medicine
811,Bambuterol,medicine
812,Bamifylline,medicine
813,Basiliximab,medicine
814,BCG Vaccine,medicine
815,Benzocaine,medicine
2084,Technetium Tc-99m Oxidronate,medicine
816,Benzoyl Peroxide,medicine
817,Benzydamine,medicine
818,Beractant,medicine
819,Betaine Glucuronate,medicine
821,Boric Acid,medicine
822,Brinzolamide,medicine
832,Camphor,medicine
823,Bromazepam,medicine
824,Bromelains,medicine
825,Bufexamac,medicine
826,Buflomedil (HCl),medicine
833,Camylofin,medicine
828,Butorphanol (Tartrate),medicine
829,Butoxyphenol,medicine
830,Calcipotriol,medicine
831,Calcium,medicine
890,Diphtheria and Tetanus Toxoids,medicine
835,Carbachol,medicine
836,Carbamide Peroxide,medicine
838,Carteolol (HCl),medicine
839,Carvedilol,medicine
840,Cefadroxil,medicine
841,Cefatrizine,medicine
842,Cefazolin,medicine
843,Cefepime,medicine
844,Cefoperazone,medicine
845,Ceforanide,medicine
847,Cefpodoxime,medicine
849,Cetirizine,medicine
850,Chloroxylenol,medicine
851,Chymotrypsin,medicine
853,Choline Salicylate,medicine
854,Cilazapril,medicine
855,Citalopram (HBr),medicine
856,Citicoline,medicine
858,Clarithromycin,medicine
859,Clemastine,medicine
860,Clioquinol,medicine
861,Co-Dergocrine Mesylate,medicine
2114,Fluocortin Butyl,medicine
868,Crotamiton,medicine
869,Cyclizine,medicine
871,Cyclopentolate (HCl),medicine
872,Cytochrome C,medicine
873,Dalteparin,medicine
875,Dibekacin,medicine
877,Diclofenac (K),medicine
2115,Flucortolone Pivalate,medicine
880,Diflucortolone (Valerate),medicine
881,Digestive Enzyme,medicine
882,Dihydroergocryptine,medicine
883,Di-Iodohydroxyquinoline,medicine
884,Dimecrotic Acid,medicine
885,Dimenhydrinate,medicine
886,Dioctahedral Semctite,medicine
887,Diosmin,medicine
888,Diphtheria Antitoxin,medicine
889,"Diphtheria, Tetanus and Pertussis Vaccine",medicine
892,Dipyrone,medicine
893,Docetaxel,medicine
1333,Ferric Ammonium Citrate,medicine
894,Dorzolamide,medicine
895,Drotaverine,medicine
896,Dybenal,medicine
897,Ebastine,medicine
898,Emedastine,medicine
900,Enoxaparin,medicine
901,Eperisone (HCl),medicine
902,Epirubicin,medicine
904,Lodoxamide Tromethamine,medicine
905,Lomefloxacin (HCl),medicine
906,Lormetazepam,medicine
907,L-Ornithine L-Aspartate,medicine
908,Losartan (K),medicine
1314,Fludiazepam,medicine
909,Loxoprofen (Sodium),medicine
911,Magaldrate,medicine
912,Measles Vaccine,medicine
913,"Measles, Mumps and Rubella Vaccine",medicine
922,Meropenem,medicine
915,Meclofenamic Acid,medicine
916,Meclozine,medicine
917,Mecobalamin,medicine
919,Meningitis Vaccine,medicine
920,Mepartricin,medicine
925,Methoxsalen,medicine
927,Methyloestrenolone,medicine
930,Metopine,medicine
932,Midecamycin (Acetate),medicine
933,Moclobemide,medicine
934,Molgramostim,medicine
935,Montelukast,medicine
936,Moxonidine,medicine
937,Mumps Vaccine,medicine
1342,Proglumide,medicine
938,Nadroparin (Ca),medicine
939,Naftifine (HCl),medicine
940,Naphazoline,medicine
941,Nimesulide,medicine
963,Phloroglucinol,medicine
942,Nitrofurazone,medicine
943,Nitroglycerin,medicine
945,Olanzapine,medicine
946,Oxaprozin,medicine
949,Oxybuprocaine,medicine
950,Oxybutynin (HCl),medicine
951,Paclitaxel,medicine
952,Pantoprazole,medicine
954,Paraffin,medicine
955,Paramoxine,medicine
956,Paroxetine,medicine
957,Pefloxacin,medicine
959,Pentoxifylline,medicine
960,Pergolide,medicine
961,Perindopril,medicine
962,Permethrin,medicine
965,Pinazepam,medicine
967,Pipemidic Acid,medicine
968,Piracetam,medicine
969,Pirenoxine,medicine
970,Piribedil,medicine
971,Plasma Protein Fraction,medicine
972,Pneumococcal Vaccine,medicine
973,Poliomyelitis Vaccine,medicine
974,Polyacrylic Acid,medicine
990,Quinapril,medicine
981,Proparacaine (HCl),medicine
975,Potassium Chloride,medicine
976,Potassium Iodide,medicine
977,Povidone-Iodine,medicine
978,Pramiverine (HCl),medicine
979,Procaterol,medicine
982,Propoxyphene,medicine
983,Propyphenazone,medicine
984,Protirelin,medicine
1000,Roxatidine,medicine
985,Psyllium Husk,medicine
986,Pyrantel Pamoate,medicine
987,Pyrilamine (Maleate),medicine
988,Pyritinol (HCl),medicine
993,Raloxifene (HCl),medicine
991,Rabies Immune Globulin,medicine
992,Rabies Virus Vaccine,medicine
1034,Sulbutiamine,medicine
995,Rho (D) Immune Globulin,medicine
1002,Rubella Vaccine,medicine
996,Risperidone,medicine
997,Rivastigmine,medicine
998,Rocuronium (Br),medicine
999,Rofecoxib,medicine
1001,Roxithromycin,medicine
1006,Secnidazole,medicine
1009,Serratiopeptidase,medicine
1010,Salmeterol,medicine
1011,Sertraline (HCl),medicine
1013,Silymarin,medicine
1040,Sulfolax,medicine
1014,Simethicone,medicine
1016,Sitosterol,medicine
1022,Sodium Picosulphate,medicine
1018,Sodium Acetate,medicine
1020,Sodium Hyaluronate,medicine
1041,Sulfanilamide,medicine
1021,Sodium Phosphate,medicine
1345,Bromohexine,medicine
1024,Somatostatin,medicine
1145,Halcinonide,medicine
1026,Sparfloxacin,medicine
1044,Resorcinol,medicine
1047,Tacalcitol,medicine
1049,Tazobactam (Na),medicine
1050,Teicoplanin,medicine
1074,Tioconazole,medicine
1052,Terazosin,medicine
1053,Terbinafine (HCl),medicine
1056,Tetanus Immune Globulin (Human),medicine
1057,Tetanus Toxoid,medicine
1058,Tetrachlorodecaoxide,medicine
1059,Tetrahydrozoline (HCl),medicine
1072,Ticlopidine (HCl),medicine
1073,Tincture,medicine
1061,Thiethylperazine,medicine
1062,Thiocolchicoside,medicine
1067,Tianeptine,medicine
1070,Tibolone,medicine
1071,Tice-BCG,medicine
1076,Tizanidine,medicine
1077,Tofisopam,medicine
1078,Tolperisone (HCl),medicine
1083,Triflusal,medicine
1079,Topiramate,medicine
1080,Topotecan (HCl),medicine
1081,Tramadol (HCl),medicine
1082,Trandolapril,medicine
1110,Estrogens Conjugated,medicine
1088,Triptorelin,medicine
1090,Tropicamide,medicine
1091,Tropisetron (HCl),medicine
1092,Tulobuterol (HCl),medicine
1107,Zolpidem (Tartrate),medicine
1093,Typhoid Vaccine,medicine
1094,Ubidecarenone,medicine
1095,Valsartan,medicine
1104,Zinc Oxide,medicine
1096,Venlafaxine (HCl),medicine
1102,Vitamin B Complex,medicine
1103,Zalcitabine,medicine
1105,Zinc Sulphate,medicine
1106,Zolmitriptan,medicine
1112,Euflavine,medicine
1108,Estazolam,medicine
1348,Sulodexide,medicine
1109,Estradiol (Valerate),medicine
1189,Gas Gangrene Vaccine,medicine
1111,Ethylestrenol,medicine
1115,Ferrous Sulphate,medicine
1200,Di-Isopromine (HCl),medicine
1116,Fexofenadine,medicine
1117,Finasteride,medicine
1118,Flavoxate (HCl),medicine
1119,Floctafenine,medicine
1120,Fluconazole,medicine
1121,Fluocortolone,medicine
1122,Flunarizine (HCl),medicine
1350,Antler Extract,medicine
1124,Fluorometholone,medicine
1126,Follitropin Beta,medicine
1127,Formestane,medicine
1128,Fosfomycin,medicine
1163,Isoconazole (Nitrate),medicine
1129,Fosinopril (Na),medicine
1130,Furazolidone,medicine
1132,Gadopentetic Acid,medicine
1133,Galactose Microparticles,medicine
1364,Sodium Phenolate,medicine
1365,Nickle,medicine
1134,Gemcitabine,medicine
1135,Gentian Violet,medicine
1136,Ginkgo Biloba Extract,medicine
1137,Glimepiride,medicine
1138,Glucosamine (Sulphate),medicine
1142,Glycerin,medicine
1143,Glycopyrrolate,medicine
1144,Gonadotropin,medicine
1146,Halofantrine (HCl),medicine
1202,Raubasine,medicine
1147,Heparinoid,medicine
1148,Hydrogen Peroxide,medicine
1149,Hydroquinone,medicine
1150,Hydroxyethyl Starch,medicine
1203,Cetalkonium (Cl),medicine
1152,Hydroxypropyl Methylcellulose,medicine
2130,Methandienone,medicine
1153,Hydroxyzine,medicine
1154,Hyoscyamine,medicine
1155,Imidapril,medicine
1156,Immune Globulin,medicine
1157,Iopromide,medicine
1158,Iotrolan,medicine
1159,Ipriflavone,medicine
1160,Irinotecan (HCl Trihydrate),medicine
1161,Iron Sucrose,medicine
1162,Isoamyl-P-N-Dimethyl,medicine
1164,Isopropyl Unoprostone,medicine
1165,Keto-Analogue of Amino Acid,medicine
1166,Ketorolac (Tromethamine),medicine
1169,Lamivudine,medicine
1170,Lamotrigine,medicine
1171,Lansoprazole,medicine
1172,Latanoprost,medicine
1436,Bupropion (HCl),medicine
1173,Lenograstim,medicine
1174,Lercanidipine (HCl),medicine
1175,Letrozole,medicine
1177,Levamisole,medicine
1178,Levobunolol (HCl),medicine
1179,Levofloxacin,medicine
1204,Methylestradiol,medicine
1180,Levosulpiride,medicine
1182,Tenoxicam,medicine
1184,Influenza Vaccine,medicine
1186,Hepatitis Vaccine,medicine
1191,Fluvastatin,medicine
1195,Multiple Vitamins,medicine
1198,Ammonium Chloride,medicine
1205,Sodium Iodide,medicine
1206,Sodium Acid Citrate,medicine
1207,Oxethazaine,medicine
1208,Azelastine (HCl),medicine
1214,Factor IX,medicine
1216,Adenosine,medicine
1217,Menthol,medicine
1218,Sodium Lactate,medicine
1219,Nikethamide,medicine
1220,Papain,medicine
1222,Carbinoxamine (Maleate),medicine
1223,Clidinium (Br),medicine
1224,Benzyl Alcohol,medicine
1225,Thymomodulin,medicine
1226,Cade Oil (Juniper Tar),medicine
1227,Methyl Salicylate,medicine
1228,Oxtriphylline (Choline Theophyllinate),medicine
1229,Alverine Citrate,medicine
1231,Chlorbutol,medicine
1232,Tolterodine (Tartrate),medicine
1233,Arginine,medicine
1234,Belladona,medicine
1256,Amylase (Ptyline),medicine
1235,Betacarotene,medicine
1236,Cisapride,medicine
2256,Dalfampridine,medicine
1237,Corticotropin,medicine
1238,Diphenyl Pyraline,medicine
1239,Diphtheria Toxoids,medicine
1240,Flunisolide,medicine
1241,Methenamine,medicine
1242,Magnesium Sulphate,medicine
1243,Mepyramine,medicine
1244,Mepivacaine,medicine
1245,Meloxicam,medicine
1246,Meclizine,medicine
1248,Pertussis Immune Globulin,medicine
1249,Peppermint Oil,medicine
1250,Para Aminobenzoic Acid,medicine
1251,Phenazopyridine (HCl),medicine
1322,Melitracen (HCl),medicine
1257,Calcium Dobesilate,medicine
1252,Sodium Diatrizoate,medicine
1262,Calcium Folinate,medicine
1253,Thiomersal,medicine
2032,Dioxanthion,medicine
1254,Thymol,medicine
1255,Phenazone,medicine
1261,Tartaric Acid,medicine
1263,Nitrogen,medicine
1264,Calcium Phosphate,medicine
1265,Ammonium Carbonate,medicine
1266,Strychnine,medicine
1267,Sodium Lauryl Sulphate,medicine
1309,Chlorocresol,medicine
1272,Clove Oil,medicine
1273,Noscapine,medicine
1274,Corn Oil (Maize Oil),medicine
1275,Chromium,medicine
1276,Copper,medicine
1277,Calcium Lactate,medicine
1278,Salicylamide,medicine
1279,Pancreatin,medicine
1280,Lysine,medicine
1281,Guaifenesin,medicine
1282,Amcinonide,medicine
1283,Bile Extract,medicine
1284,Rutin (Vitamin P),medicine
1285,Nimetazepam,medicine
1289,Magnesium Chloride,medicine
1290,Lecithin,medicine
1291,L-Carnitine,medicine
1292,Manganese,medicine
1293,Manganese Chloride,medicine
1315,Fluprednisolone,medicine
1294,Castor Oil,medicine
1295,Molybdenum,medicine
1299,Glycine,medicine
1300,Phosphorus,medicine
1301,Isopropamide (I),medicine
1302,Idarubicin (HCl),medicine
1323,Propylene Glycol,medicine
1303,Gadodiamide,medicine
1316,Ferrocholinate,medicine
1304,Ginseng Extract,medicine
1305,Ethamsylate,medicine
1306,Eucalyptol,medicine
1307,Ethyl Chloride,medicine
1308,D-Pantothenol,medicine
1310,Cresol,medicine
1311,Balsam of Peru,medicine
1312,Factor VII,medicine
1317,Ferrous Gluconate,medicine
1318,Famciclovir,medicine
1319,Medrysone,medicine
1320,Glycolic Acid,medicine
1321,Magnesium Glutamate (HBr),medicine
1343,Phenyl Ethyl Alcohol,medicine
1328,Hesperidin,medicine
1334,Polyvinyl Alcohol,medicine
1335,Tincture Myrrh,medicine
1336,Choline Chloride,medicine
1337,Chloroform,medicine
1338,Sodium Ironedetate,medicine
1352,Soyabean Oil,medicine
1353,Palm Oil,medicine
1357,Difemerine (HCl),medicine
1358,Cicletanine (HCl),medicine
1360,Optazine,medicine
1362,Cortolone Caproate,medicine
1363,Mucoprotease,medicine
1367,Phenyl Toloxamine Citrate,medicine
1368,Oxypolygelatin,medicine
1369,Sodium Ricinoleate,medicine
1371,Methyl Parahydroxybenzoate,medicine
1372,Trimethylphloroglucinol,medicine
1374,Oligomeric Procyanidin,medicine
1375,Pepenzolate,medicine
1386,Polidocanol,medicine
1376,Dill Oil,medicine
1377,Globulin,medicine
1380,Sodium Pantothenate,medicine
1381,Ferric Choline Citrate,medicine
1382,Glutamine Synthetase,medicine
1383,Glyceryl Gluconate,medicine
2047,Phenacemide,medicine
1388,Bovine Collagen,medicine
1391,Citric Acid,medicine
1392,Inositol,medicine
1393,Calcium Glycerophosphate,medicine
1395,Cinchocaine,medicine
1401,Potassium Bicarbonate,medicine
1402,Potassium Glycerophosphate,medicine
1403,Carnitine,medicine
1404,Pantothenic Acid,medicine
1405,Cobalt,medicine
1408,Factor II,medicine
1409,Factor X,medicine
1411,Theobromine,medicine
1412,Magnesium Trisilicate,medicine
1413,Niaprazine,medicine
1416,Pectin,medicine
1417,Sodium Citrate,medicine
1418,Calcium Chloride,medicine
1419,Acipimox,medicine
2092,Ethylnorepinephrine,medicine
1420,Aldesleukin,medicine
1421,Para-Amino Salicylic Acid,medicine
1422,Alglucerase,medicine
1423,Amorolfine,medicine
1424,Amoxapine,medicine
1425,Apomorphine,medicine
1426,Apraclonidine (HCl),medicine
1427,Arbekacin,medicine
1428,Atovaquone,medicine
2166,Azidamfenicol,medicine
1429,Artemisinin,medicine
1430,Benazepril (HCl),medicine
1431,Bicalutamide,medicine
1433,Bifemelane,medicine
1434,Botulinum Toxin Type A,medicine
1437,Canrenoate (K),medicine
1438,Cefodizime (Na),medicine
1439,Cefprozil (Monohydrate),medicine
1440,Celiprolol (HCl),medicine
1898,Clotiazepam,medicine
1441,Ciprofibrate,medicine
1442,Crisantaspase,medicine
1443,Cromolyn (Na),medicine
1444,Cycloserine,medicine
2222,Mosapride citrate,medicine
1445,Dornase Alfa,medicine
1446,Desflurane,medicine
1447,Didanosine,medicine
1448,Dolasetron (Mesylate),medicine
1449,Dopexamine (HCl),medicine
1450,Eflornithine,medicine
1451,Enoximone,medicine
1452,Esmolol,medicine
1453,Fludarabine,medicine
1454,Fenofibrate,medicine
1455,Felbamate,medicine
1456,Fluticasone Propionate,medicine
1922,Feprazone,medicine
1457,Gabapentin,medicine
1458,Gallium Nitrate,medicine
1459,Gallopamil,medicine
1460,Gamma Linolenic Acid,medicine
1461,Gestodene,medicine
1462,Gestrinone,medicine
1463,Granisetron (HCl),medicine
1464,Hydromorphone,medicine
1465,Hirudin,medicine
1466,Ibutilide (Fumarate),medicine
1467,Idebenone,medicine
1468,Indinavir (Sulphate),medicine
1469,Interferon Beta,medicine
1470,Interferon Gamma,medicine
1471,Lacidipine,medicine
1473,Rifabutin,medicine
1474,Ropivacaine (HCl Monohydrate),medicine
1475,Iron Dextran,medicine
1476,Docusate (Na),medicine
1477,Dronabinol,medicine
1478,Amrinone (Lactate),medicine
1479,Lypressin,medicine
1480,Pyrethrins,medicine
1481,Vasopressin,medicine
1967,Terpineol,medicine
1482,Rabeprazole,medicine
1483,Aminocaproic Acid,medicine
1484,Tacrolimus,medicine
1485,Tiagabine (HCl),medicine
1968,Potassium Sorbate,medicine
1486,Plicamycin,medicine
1487,Glucagon (HCl),medicine
1488,Oxacillin,medicine
1489,Paromomycin (Sulphate),medicine
1969,Lorcainide,medicine
1490,Nafcillin,medicine
1491,Risedronate (Na),medicine
1492,Sirolimus,medicine
1493,Capecitabine,medicine
1508,Rimantadine,medicine
1500,Mycophenolate,medicine
1495,Trimethobenzamide (HCl),medicine
1496,Zileuton,medicine
1497,Nelfinavir,medicine
1524,Penbutolol,medicine
1498,Nevirapine,medicine
1501,Oxycodone,medicine
1502,Fosphenytoin,medicine
1503,Divalproex (Na),medicine
1504,Succimer,medicine
1505,Sodium Polystyrene Sulphonate,medicine
1506,Sulfisoxazole,medicine
1507,Ritonavir,medicine
1525,Oxitropium (Br),medicine
1545,Obidoxime (Cl),medicine
1509,Sevoflurane,medicine
1510,Dihydrotachysterol,medicine
1511,Calcium Gluceptate,medicine
1534,Troglitazone,medicine
1512,Calcium Glubionate,medicine
1513,Dicloxacillin (Na),medicine
1514,Ceftibuten,medicine
1515,Phenolphthalein,medicine
1516,Valaciclovir (HCl),medicine
1517,Teprenone,medicine
1518,Stavudine,medicine
1519,Sodium Gualenate,medicine
1520,Sodium Levoglutamide,medicine
1521,Saquinavir,medicine
1570,Caroverine,medicine
1522,Ropinirole (HCl),medicine
1523,Riluzole,medicine
1526,Nitric Oxide,medicine
1527,Nicergoline,medicine
1528,Mometasone (Furoate),medicine
1529,Zafirlukast,medicine
1530,Zotepine,medicine
1531,Yohimbine (HCl),medicine
1532,Diprophylline,medicine
1533,Azapropazone,medicine
1536,Tetrabenazine,medicine
1537,Terlipressin,medicine
1538,Thalidomide,medicine
1539,Tacrine (HCl),medicine
1540,Strontium-89 Chloride,medicine
1541,Sodium Tetradecyl Sulphate,medicine
1542,Reserpine,medicine
1543,Quinagolide (HCl),medicine
1544,Piretanide,medicine
1546,Norgestimate,medicine
1547,Nisoldipine,medicine
1548,Nicorandil,medicine
1549,Nefazodone (HCl),medicine
1550,Nafarelin (Acetate),medicine
1551,Moricizine (HCl),medicine
1552,Tyrothricin,medicine
1554,Silicon Dioxide,medicine
1555,Serrapeptase,medicine
1556,Glucomannan,medicine
1670,Fondaparinux Sodium,medicine
1557,Yellow Fever Vaccine,medicine
1558,Cholera Vaccine,medicine
1559,Hepatitis B Immunoglobulin,medicine
1560,Methoxamine,medicine
1561,Loracarbef,medicine
1562,Leuprolide (Acetate),medicine
1563,Mibefradil (Di HCl),medicine
1564,Mivacurium (Cl),medicine
1565,Milrinone (Lactate),medicine
1566,Cilostazole,medicine
1567,Bamipine (Lactate),medicine
1569,Efavirenz,medicine
1592,Moxifloxacin,medicine
1571,Nebivolol (HCl),medicine
1572,Halometasone,medicine
1573,Eprosartan,medicine
1574,Etifoxine (HCl),medicine
1575,Celecoxib,medicine
1593,Tuberculin PPD,medicine
1576,Varicella Vaccine,medicine
1577,Tirofiban HCl,medicine
1579,Hydroxyquinolone Sulphate,medicine
1580,Mirtazapine,medicine
1605,Carbazochrome,medicine
1582,Hepatitis A Vaccine,medicine
1583,Eugenol,medicine
1584,Metacycline (HCl),medicine
1585,Insulin Lispro,medicine
1586,Triclofos (Na),medicine
1587,Sodium Alginate,medicine
1589,Salcatonin,medicine
1590,Zinc Phenolsulphonate,medicine
1591,Sibutramine,medicine
1611,Di-Hydroxydibutylether,medicine
1594,Imatinib Mesylate,medicine
1595,Iron Sorbitol,medicine
1597,Orotic Acid,medicine
1599,Itopride (HCl),medicine
1600,Cholecalciferol,medicine
1601,Benzoic Acid,medicine
1602,Zinc Pyrithione,medicine
1603,Desonide,medicine
1636,Iodide,medicine
1604,Amifostine,medicine
1606,Chlorquinaldol,medicine
1607,Cilastatin (Na),medicine
1608,Cefdinir,medicine
1609,Rosiglitazone (Maleate),medicine
1610,Escitalopram,medicine
1612,Sodium Clodronate,medicine
1613,Ciclonium (Br),medicine
1614,Hepatitis B Vaccine,medicine
1615,Brimonidine (Tartrate),medicine
1616,Diclofenac Diethylammonium,medicine
1617,Tegaserod,medicine
1663,Bosentan,medicine
1618,Zoledronic Acid,medicine
1619,Natamycin,medicine
1621,Co-Amoxiclav,medicine
1623,"Diphtheria,Tetanus,Pertussis & Hepatitis B Vaccine",medicine
1672,Reteplase,medicine
1628,Haemophilus Influenzae Type b Vaccine,medicine
1629,Chlorzoxazone,medicine
1649,Phosphoric Acid,medicine
1630,Peginterferon Alfa-2a (rbe),medicine
1631,Chloral Betaine,medicine
1632,Triclosan,medicine
1640,Methotrimeprazine(HCl),medicine
1642,Sodium Benzoate,medicine
1644,Pioglitazone,medicine
1645,Interferon Alpha 2a,medicine
1646,Interferon Alpha 2b,medicine
1647,Tribulus Terrestris,medicine
1651,Erdosteine,medicine
1703,Tolfenamic Acid,medicine
1653,Diclofenac Free Acid,medicine
1654,Trastuzumab,medicine
1655,Rituximab,medicine
1657,Telmisartan,medicine
1658,Candesartan,medicine
1659,Irbesartan,medicine
1660,Olmesartan Medoxomil,medicine
1662,Torasemide,medicine
1664,Moexipril,medicine
1665,Moxisylyte,medicine
1666,Certoparin,medicine
1667,Reviparin Sodium,medicine
1668,Tinzaparin Sodium,medicine
1669,Lepirudin,medicine
1671,Eptifibatide,medicine
1673,Tenecteplase,medicine
1674,Ezetimibe,medicine
1675,Rosuvastatin,medicine
1676,Ethanolamine Oleate,medicine
1677,Omega-3-Acid Ethyl Esters,medicine
1682,Hydrotalcite,medicine
1684,Tripotassium Dicitratobismuthate,medicine
1696,Acrivastine,medicine
1685,Esomeprazole,medicine
1728,Inosine Pranobex,medicine
1686,Balsalazide Sodium,medicine
1687,Dantron,medicine
1700,Colfosceril Palmitate,medicine
1688,Danaparoid Sodium,medicine
1689,Fresh Frozen Plasma,medicine
1693,Omega-3-Marine Triglycerides,medicine
1694,Formoterol (Fumarate),medicine
1695,Tiotropium,medicine
1697,Desloratadine,medicine
1726,Capreomycin,medicine
1698,Levocetirizine,medicine
1699,Mizolastine,medicine
1702,Nabilone,medicine
1704,Almotriptan,medicine
1705,Naratriptan,medicine
1706,Eletriptan,medicine
1707,Rizatriptan,medicine
1708,Isometheptene Mucate,medicine
1709,Oxcarbazepine,medicine
1710,Levetiracetam,medicine
1711,Paraldehyde,medicine
1766,Tyrosine,medicine
1712,Entacapone,medicine
1713,Pramipexole,medicine
1714,Botulinum B Toxin,medicine
1715,Acamprosate Calcium,medicine
1716,Lofexidine,medicine
1717,Donepezil (HCl),medicine
1718,Galantamine,medicine
1719,Memantine,medicine
1722,Co-Fluampicil,medicine
1723,Ertapenem,medicine
1724,Telithromycin,medicine
1725,Linezolid,medicine
1729,Abacavir,medicine
1730,Tenofovir Disoproxil,medicine
1731,Amprenavir,medicine
1732,Cidofovir,medicine
1767,Histidine,medicine
1733,Valganciclovir,medicine
1734,Zanamivir,medicine
1735,Oseltamivir,medicine
1737,Mepacrine (HCl),medicine
1738,Flunitrazepam,medicine
1739,Loprazolam,medicine
1740,Zaleplon,medicine
1741,Amobarbital,medicine
1742,Butobarbital,medicine
1743,Pericyazine,medicine
1744,Sertindole,medicine
1745,Reboxetine,medicine
1768,Nifuroxazide,medicine
1746,Modafinil,medicine
1747,Orlistat,medicine
1748,Insulin Aspart,medicine
1749,Nateglinide,medicine
1750,Deflazacort,medicine
1751,Insulin Glargine,medicine
1752,Lutropin Alfa,medicine
1753,Sermorelin,medicine
1754,Disodium Etidronate,medicine
1755,Disodium Pamidronate,medicine
1756,Ibandronic Acid,medicine
1759,Travoprost,medicine
1760,Leflunomide,medicine
1775,Pine Tar,medicine
1761,Gatifloxacin,medicine
1762,Isoleucine,medicine
1763,Leucine,medicine
1764,Phenylalanine,medicine
1765,Threonine,medicine
1769,Cetylpyridinium Chloride,medicine
1770,Potassium Nitrate,medicine
1771,Sodium Fluoride,medicine
1773,Zinc Chloride,medicine
1776,Sodium Biphosphate,medicine
1777,Muramidase(HCl),medicine
1778,Mafenide Acetate,medicine
1779,Follitropin Alfa,medicine
1809,Ethyl Lactate,medicine
1780,Chondroitin Sulphate,medicine
1781,Povidone,medicine
1782,Zinc Citrate,medicine
1783,Daclizumab,medicine
1784,Flumethasone,medicine
1785,Verteporfin,medicine
1786,Estriol,medicine
1787,Ganirelix,medicine
1788,Parecoxib,medicine
1789,Remifentanil,medicine
1790,Cisatracurium,medicine
1791,Gallamine Triethiodide,medicine
1792,Aceclofenac,medicine
1793,Acemetacin,medicine
1813,Adefovir Dipivoxil,medicine
1814,Hexahydroadiphenine (HCl),medicine
1794,Dexketoprofen,medicine
1795,Etoricoxib,medicine
1796,Valdecoxib,medicine
1797,Sodium Aurothiomalate,medicine
1805,Enterococcus Faecium M74,medicine
1806,Testa Triticum Tricum,medicine
1815,Procaine,medicine
1817,Choline Alfoscerate,medicine
1818,Oxaliplatin,medicine
1819,Iopamidol,medicine
1856,Guanadrel,medicine
1823,Aripiprazole,medicine
1824,Alclometasone Dipropionate,medicine
1825,Tadalafil,medicine
1826,Exemestane,medicine
1827,Cerivastatin Sodium,medicine
1833,Fenoldopam,medicine
1834,Pemoline,medicine
1835,Penciclovir,medicine
1836,Pemetrexed,medicine
1840,Cetrorelix,medicine
1841,Trilostane,medicine
1842,Atosiban,medicine
1843,Tamsulosin Hydrochloride,medicine
1844,Duloxetine Hydrochloride,medicine
1845,Propiverine Hydrochloride,medicine
1846,Quinupristin,medicine
1848,Atazanavir,medicine
1849,Dicumarol,medicine
1850,Doxacurium,medicine
1852,Valproic Acid,medicine
1854,Pargyline,medicine
1855,Troleandomycin,medicine
1857,Pipercuronium,medicine
1858,Dimethyl Sulfoxide,medicine
1859,Methoxyflurane,medicine
1860,Methazolamide,medicine
1893,Cladribine,medicine
1861,Methamphetamine,medicine
1863,Phentermine,medicine
1864,Mazindol,medicine
1875,Sildenafil,medicine
1878,Pentostatin,medicine
1879,Levomethadyl,medicine
1880,Prenylamine,medicine
1881,Sulfonamide,medicine
1882,Etaphylline,medicine
1883,Insulin,medicine
1885,St.Johns Wort Extract,medicine
1886,Anthralin,medicine
1887,Carbetapentane,medicine
1888,Iodixanol,medicine
1889,Aceclidine,medicine
1895,Brotizolam,medicine
1896,Chloroprocaine,medicine
1897,Amphetamine,medicine
1899,Amyl Nitrate,medicine
2218,Diacerein,medicine
1900,Benzbromarone,medicine
1901,Teniposide,medicine
1902,Diphenidol,medicine
1904,Enalaprilat,medicine
1905,Etidocaine,medicine
1907,Ethchlorvynol,medicine
1908,Flurandrenolide,medicine
1909,Estramustine,medicine
1910,Gadoteridol,medicine
1911,Edetic acid,medicine
1912,Nitroprusside,medicine
1913,Glutethimide,medicine
1914,Ethinamate,medicine
1915,Halazepam,medicine
1916,Quazepam,medicine
1917,Guanabenz,medicine
1918,Hydrocodone,medicine
1919,Quinestrol,medicine
1920,Ethyl Biscoumacetate,medicine
1925,Fluoxymesterone,medicine
1926,Floxuridine,medicine
1927,Iocetamic Acid,medicine
1928,Fluspirilene,medicine
1992,Metrizamide,medicine
1929,Guanfacine,medicine
1930,Ziprasidone,medicine
1931,Hexylcaine Hydrochloride,medicine
1932,Indocyanine Green,medicine
1993,Metipranolol,medicine
1959,Potassium Citrate,medicine
1933,Iodipamide Meglumine,medicine
1934,Ioversol,medicine
1937,Ioxaglate,medicine
1939,Ioxilan,medicine
1941,Flucloxacillin.,medicine
1943,Doxicycline Hyclate,medicine
1944,Ipodate,medicine
1946,Lopinovir,medicine
1948,Ferrous Fumarate,medicine
1949,Iproniazid Phosphate,medicine
1951,Mucopolysaccharide Poly Sulphate,medicine
1952,Iprindole,medicine
1956,Wheat Bran,medicine
1958,Lymphocyte Immune Globulin,medicine
1961,Bimatoprost,medicine
1963,Aldioxa,medicine
1964,Potassium Hydroxide,medicine
1970,Bismuth Subsalicylates,medicine
1999,Methylamphetamine,medicine
1971,Iron Hydroxide Poly Maltose Complex,medicine
1972,Loxapine,medicine
1974,Lomustine,medicine
1977,Magnesium Salicylate,medicine
1978,Mecamylamine,medicine
1979,Mechlorethamine,medicine
1980,Meclofenamate,medicine
1984,Mephenesin,medicine
1985,Mephentermine,medicine
1986,Mephenytoin,medicine
1987,Mesoridazine Besylate,medicine
1988,Metapramine Fumarate,medicine
1989,Metaxalone,medicine
1994,Metyrosine,medicine
1990,Methdilazine,medicine
1991,Methocarbamol,medicine
1995,Methyltestosterone,medicine
1996,Methylergonovine,medicine
1997,Mitotane,medicine
1998,Methicillin Sodium,medicine
2002,Clopidogrel,medicine
2003,Nicotinyl Alcohol,medicine
2004,Nilvadipine,medicine
2006,Muromonab-cd3,medicine
2007,Monosulfiram,medicine
2008,Molindone,medicine
2009,Nimorazole,medicine
2010,Nitrendipine,medicine
2011,Nitromersol,medicine
2023,Temocillin Sodium,medicine
2012,Glucosamine Hydrochloride,medicine
2013,Norethandrolone,medicine
2015,Norethynodrel,medicine
2016,Nylidrin,medicine
2050,Propylhexidrine,medicine
2017,Opium,medicine
2031,Sulphamethizole,medicine
2018,Ornidazole,medicine
2019,Oxandrolone,medicine
2021,Oxymetholone,medicine
2022,Oxymorphone,medicine
2024,Sodium Ioxaglate,medicine
2026,Oxypertine,medicine
2027,Oxyphenbutazone,medicine
2028,Oxyphenisatin Acetate,medicine
2029,Paraformaldehyde,medicine
2051,Remoxipride,medicine
2030,Paregoric,medicine
2033,Salsalate,medicine
2034,Semustine,medicine
2035,Sargramostim,medicine
2036,Saruplase,medicine
2037,Perazine Dimalonate,medicine
2038,Streptomycin Sulphate,medicine
2039,Perfluorochemical Emulsion,medicine
2040,Sulfapyridine,medicine
2044,Rhubarb,medicine
2046,Phendimetrazine,medicine
2049,Propiomazine,medicine
2052,Sulfametopyrazine,medicine
2053,Polyestradiole Phosphate,medicine
2054,Polycarbophil Calcium,medicine
2055,Plague Vaccine,medicine
2056,Phenprocoumon,medicine
2057,Fluclorolone Acetonide,medicine
2058,Potassium Clorazepate,medicine
2061,Prednisolone Tebutate,medicine
2063,Snake Venom Antisera,medicine
2064,Sissomicin Sulphate,medicine
2068,Sodium Ipodate,medicine
2070,Tetanus Vaccine,medicine
2071,Sulfacetamide Sodium,medicine
2072,Prajmalium Bitartarate,medicine
2073,Sulphafurazole Diethanolamine,medicine
2077,Phenobarbital Sodium,medicine
2078,Technetium Tc-99m Disofenin,medicine
2079,Technetium Tc-99m lidofenin,medicine
2129,Methenolone Enanthate,medicine
2080,Technetium Succimer Tc-99m,medicine
2083,Technetium Tc-99m Gluceptate,medicine
2087,Doxylamine Succinate,medicine
2088,Doxepin.,medicine
2089,Dipivefrine,medicine
2109,Frangula Bark,medicine
2116,Flumethasone Pivalate,medicine
2119,Oxprenolol,medicine
2122,Moracizine,medicine
2124,Mineral Oil,medicine
2138,Methacholine Chloride,medicine
2148,Betamethasone,medicine
2149,Quinidine,medicine
2150,Pentazocine,medicine
2151,Norethisterone,medicine
2152,Nandrolone,medicine
2153,Meglumine,medicine
2154,Clindamycin,medicine
2155,Methylprednisolone,medicine
2156,Cefuroxime,medicine
2158,Ciprofloxacin,medicine
2163,Entecavir,medicine
2164,Pipethanate ethobromide,medicine
2167,Rotavirus vaccine,medicine
2168,Magnesium,medicine
2170,Adaplene,medicine
2174,Thymosin alpha one,medicine
2263,Eribulin Mesylate,medicine
2175,Pregabalin,medicine
2176,Gemifloxacin,medicine
2177,Piroxicam-beta-cyclodextrin,medicine
2178,Anti-rabies vaccine,medicine
2264,Gadograf,medicine
2179,Insulin Detemir,medicine
2180,Norgestrel,medicine
2181,Deferiprone,medicine
2182,Teriparatide,medicine
2274,Icatibant,medicine
2183,Human Papilloma Virus (HPV) Vaccine,medicine
2184,Miltefosine,medicine
2185,Isophane insulin,medicine
2186,Omalizumab,medicine
2187,Iron Protein Succinylate,medicine
2188,Artesunate,medicine
2189,Insulin Lispro Protamine,medicine
2190,Deferasirox,medicine
2191,Ranibizumab,medicine
2192,Telbivudine,medicine
2193,Doxofylline,medicine
2194,Sunitinib,medicine
2195,Varenicline,medicine
2196,Infliximab,medicine
2198,Atomoxetine HCl,medicine
2199,Dutasteride,medicine
2200,Bevacizumab,medicine
2201,Aliskiren,medicine
2202,Erlotinib,medicine
2203,Anagrelide,medicine
2204,Prednicarbate,medicine
2205,Aluminium Phosphate,medicine
2206,Sodium Ascorbate,medicine
2227,Piperaquine Phosphate,medicine
2207,Sitagliptin,medicine
2208,Eszopiclone,medicine
2209,Coxacillin,medicine
2210,Nepafenac,medicine
2211,Cetuximab,medicine
2212,Lornoxicam,medicine
2214,Carbocisteine,medicine
2215,Cinitapride,medicine
2216,Cyclobenzaprine hydrochloride,medicine
2217,Dexibuprofen,medicine
2219,Dihydroartemisinin,medicine
2220,Eplerenone,medicine
2221,Febuxostat,medicine
2228,Rifaximin,medicine
2283,Lactitol Monohydrate,medicine
2223,Nitazoxanide,medicine
2224,Pamabrom,medicine
2225,Prasugrel HCl,medicine
2226,Ranolazine,medicine
2229,STRONTIUM RANELATE,medicine
2230,Tazarotene,medicine
2231,Vildagliptin,medicine
2232,Ethisterone,medicine
2233,Aprepitant,medicine
2237,Ossein Mineral complex,medicine
2238,Zinc gluconate,medicine
2245,Pegfilgrastim,medicine
2265,Tocilizumab,medicine
2239,Zinc,medicine
2240,Insulin aspart protamine,medicine
2241,Biphasic insulin,medicine
2242,Human Regular Insulin,medicine
2243,Beraprost,medicine
2244,Peginterferon alfa-2b,medicine
2246,Olopatadine,medicine
2247,Pramoxine Hydrochloride,medicine
2248,Solifenacin succinate,medicine
2249,Fingolimod,medicine
2250,Dabigatran,medicine
2251,Ceftaroline fosamil,medicine
2252,Liraglutide,medicine
2253,Vemurafenib,medicine
2254,Carglumic Acid,medicine
2255,Lurasidone,medicine
2267,Pegloticase,medicine
2268,Crizotinib,medicine
2269,Ticagrelor,medicine
2311,Canagliflozin,medicine
2275,Vandetanib,medicine
2270,Ipilimumab,medicine
2271,Vilazodone,medicine
2272,Abiraterone acetate,medicine
2273,Azilisartan Medoxomil,medicine
2276,Linagliptin,medicine
2278,Roflumilast,medicine
2279,DENOSUMAB,medicine
2281,Lacosamide,medicine
2282,Iloperidone,medicine
2284,Desvenlafaxine,medicine
2285,Loteprednol,medicine
2292,Pitavastatin,medicine
2307,Ospemifene,medicine
2286,Ozagrel Sodium,medicine
2287,Esdepallethrine,medicine
2289,Nilotinib,medicine
2290,Sorafenib,medicine
2291,Piperonyl Butoxide,medicine
2293,Eltrombopag Olamine,medicine
2294,Sevelamer HCl,medicine
2295,Mangnese Glycerophosphate,medicine
2300,Alogliptin,medicine
2301,Mipomersen Sodium,medicine
2302,Lycopene,medicine
2303,Oprelvekin,medicine
2304,Bacillus Clausii,medicine
2305,Saccharomyces boulardii,medicine
2306,Pomalidomide,medicine
2308,Tilmanocept,medicine
2309,Gadoterate meglumine,medicine
2310,Dimethyl Fumarate,medicine
2312,Dabrafenib,medicine
2322,Vortioxetine,medicine
2313,Trametinib,medicine
2314,Afatinib,medicine
2315,Www.fda.gov,medicine
2316,Ferric Carboxymaltose,medicine
2317,Iron isomaltoside,medicine
2318,Sultamicillin,medicine
2319,Dapoxetine HCl,medicine
2320,VORICONAZOLE,medicine
2329,Levodropropizine,medicine
2321,Dolutegravir,medicine
2323,Conjugated Estrogens/Bazedoxifene,medicine
2324,Indacaterol,medicine
2328,"Meningococcal Polysaccharide Vaccine,",medicine
2331,Riociguat,medicine
2332,Macitentan,medicine
