hospital,profile_name,report_type,profile_code,lab_section,lab_section_code,parameter,parameter_code,uom,specimen,result_type1,result_type2,gender,age_start,age_end,date_unit,start_range,end_range,range_title,
"Lady Aitchison Hospital, Lahore",RFT (Renal Function Test),Standard,RFT,CHEMISTRY,CHEM,Blood Urea,BUREA,mg/dl,blood,decimal,decimal,female,0,150,Years,10,45,10-45,
"Lady Aitchison Hospital, Lahore",RFT (Renal Function Test),Standard,RFT,CHEMISTRY,CHEM,Creatinine,CRTN,mg/dl,blood,decimal,decimal,female,0,150,Years,0.5,1.4,0.5 - 1.4 ,
"Lady Aitchison Hospital, Lahore",RFT (Renal Function Test),Standard,RFT,CHEMISTRY,CHEM,Urinary Protein,UPRTN,mg/dl,blood,decimal,decimal,female,0,150,Years,20,120,20 - 120 ,
"Lady Aitchison Hospital, Lahore",RFT (Renal Function Test),Standard,RFT,CHEMISTRY,CHEM,Creatinine Clearance,CRTNCLR,mg/dl,blood,decimal,decimal,female,0,150,Years,,,,
"Lady Aitchison Hospital, Lahore",LFT (Liver Function Test),Standard,LFT,CHEMISTRY,CHEM,Bilirubin Total,BLBTTL,mg/dl,blood,decimal,decimal,female,0,150,Years,0,1,upto 1.0,
"Lady Aitchison Hospital, Lahore",LFT (Liver Function Test),Standard,LFT,CHEMISTRY,CHEM,Bilirubin Direct,BLBDRT,mg/dl,blood,decimal,decimal,female,0,150,Years,0,0.3,0-0.3,
"Lady Aitchison Hospital, Lahore",LFT (Liver Function Test),Standard,LFT,CHEMISTRY,CHEM,SGPT (ALT),SGPT,UI,blood,decimal,decimal,female,0,150,Years,10,40,10 -- 40 ,
"Lady Aitchison Hospital, Lahore",LFT (Liver Function Test),Standard,LFT,CHEMISTRY,CHEM,SG0T (AST),SGOT,UI,blood,decimal,decimal,female,0,150,Years,0,31,0-31,
"Lady Aitchison Hospital, Lahore",LFT (Liver Function Test),Standard,LFT,CHEMISTRY,CHEM,Alkaline Phosphatase,ALKPHSP,UI,blood,decimal,decimal,female,0,150,Years,10,310,10 - 310,
"Lady Aitchison Hospital, Lahore",LFT (Liver Function Test),Standard,LFT,CHEMISTRY,CHEM,Gamma GT,GMMGT,UI,blood,decimal,decimal,female,0,150,Years,0,61,0-61,
"Lady Aitchison Hospital, Lahore",LFT (Liver Function Test),Standard,LFT,CHEMISTRY,CHEM,Total Protein,TTLPRTN,UI,blood,decimal,decimal,female,0,150,Years,6,8,6.0 - 8.0 ,
"Lady Aitchison Hospital, Lahore",LFT (Liver Function Test),Standard,LFT,CHEMISTRY,CHEM,Albumin,ALBMN,g/dl,blood,decimal,decimal,female,0,150,Years,3.5,5,3.5 - 5.0 ,
"Lady Aitchison Hospital, Lahore",LFT (Liver Function Test),Standard,LFT,CHEMISTRY,CHEM,Globulin,GLBN,g/dl,blood,decimal,decimal,female,0,150,Years,1.8,3.2,1.8 - 3.2 ,
"Lady Aitchison Hospital, Lahore",LFT (Liver Function Test),Standard,LFT,CHEMISTRY,CHEM,A/G Ratio,AGRT,blood,decimal,decimal,female,0,150,Years,1.2,1.2 - 2.2 ,,,
"Lady Aitchison Hospital, Lahore",Lipid Profile,Standard,LPDPR,CHEMISTRY,CHEM,Cholesterol,CHLSTR,mg/dl,blood,decimal,decimal,female,0,150,Years,100,200,100 - 200 ,
"Lady Aitchison Hospital, Lahore",Lipid Profile,Standard,LPDPR,CHEMISTRY,CHEM,Triglycerides,TRGCD,mg/dl,blood,decimal,decimal,female,0,150,Years,60,150,60 - 150 ,
"Lady Aitchison Hospital, Lahore",Serum Electrolytes,Standard,SELCTY,CHEMISTRY,CHEM,Sodium,SDM,mEq/l,blood,decimal,decimal,female,0,150,Years,135,150,135 - 150 ,
"Lady Aitchison Hospital, Lahore",Serum Electrolytes,Standard,SELCTY,CHEMISTRY,CHEM,Potassium,PTSM,mEq/l,blood,decimal,decimal,female,0,150,Years,3.5,5.5,3.5 - 5.5 ,
"Lady Aitchison Hospital, Lahore",Serum Electrolytes,Standard,SELCTY,CHEMISTRY,CHEM,Chloride,CHLRD,mEq/l,blood,decimal,decimal,female,0,150,Years,96,108,96 - 108 ,
"Lady Aitchison Hospital, Lahore",Serum Electrolytes,Standard,SELCTY,CHEMISTRY,CHEM,Calcium,CLCM,mg/dl,blood,decimal,decimal,female,0,150,Years,8.5,10.5,8.5 - 10.5 ,
"Lady Aitchison Hospital, Lahore",Serum Electrolytes,Standard,SELCTY,CHEMISTRY,CHEM,Phosphorus,PHSP,mg/dl,blood,decimal,decimal,female,0,150,Years,3,4.5,3.0 - 4.5 ,
"Lady Aitchison Hospital, Lahore",Serum Electrolytes,Standard,SELCTY,CHEMISTRY,CHEM,Magnesium,MGNSM,mg/dl,blood,decimal,decimal,female,0,150,Years,1.5,2.1,1.5-2.1,
"Lady Aitchison Hospital, Lahore",Blood Glucose (Fasting),Standard,BGF,CHEMISTRY,CHEM,Blood Glucose (Fasting),BGF,mg/dl,blood,decimal,decimal,female,0,150,Years,60,110,60 - 110 ,
"Lady Aitchison Hospital, Lahore",Blood Glucose (Random),Standard,BGF,CHEMISTRY,CHEM,Blood Glucose (Random),BGR,mg/dl,blood,decimal,decimal,female,0,150,Years,70,175,70 - 175 ,
"Lady Aitchison Hospital, Lahore",Cardiac Enzymes,Standard,CRDENZM,CHEMISTRY,CHEM,CPK,CPK,UI,blood,decimal,decimal,female,0,150,Years,35,145,35-145,
"Lady Aitchison Hospital, Lahore",Cardiac Enzymes,Standard,CRDENZM,CHEMISTRY,CHEM,LDH,LDH,UI,blood,decimal,decimal,female,0,150,Years,160,480,160 - 480 ,
"Lady Aitchison Hospital, Lahore",Spot Urine for,Standard,SPTURN,CHEMISTRY,CHEM,Urinary Protein,UPRTN,mg/dl,blood,decimal,decimal,female,0,150,Years,,,,
"Lady Aitchison Hospital, Lahore",Uric Acid,Standard,URCACD,CHEMISTRY,CHEM,Uric Acid,URCACD,mg/dl,blood,decimal,decimal,female,0,150,Years,3.4,7,3.4 - 7.0 ,
"Lady Aitchison Hospital, Lahore",Amylase,Standard,AMLYS,CHEMISTRY,CHEM,Amylase,AMLYS,UI,blood,decimal,decimal,female,0,150,Years,60,120,60 - 120 ,
"Lady Aitchison Hospital, Lahore",Iron,Standard,IRN,CHEMISTRY,CHEM,Iron,IRN,ug/dl,blood,decimal,decimal,female,0,150,Years,60,160,60 - 160 ,
"Lady Aitchison Hospital, Lahore",TIBC,Standard,TIBC,CHEMISTRY,CHEM,TIBC,TIBC,ug/dl,blood,decimal,decimal,female,0,150,Years,250,400,250 - 400 ,
"Lady Aitchison Hospital, Lahore",Ferritin,Standard,FRTN,CHEMISTRY,CHEM,Ferritin,FRTN,ug/dl,blood,decimal,decimal,female,0,150,Years,30,500,30 - 500 ,
"Lady Aitchison Hospital, Lahore",OGTT (Oral Glucose Tolerance Test),Standard,OGIT,CHEMISTRY,CHEM,OGTT,OGSF,blood,decimal,decimal,female,,,,,,,,
"Lady Aitchison Hospital, Lahore",VIROLOGY,Standard,VRLG,CHEMISTRY,CHEM,HBsAg,VHBAG,blood,decimal,decimal,female,,,,,,,,
"Lady Aitchison Hospital, Lahore",VIROLOGY,Standard,VRLG,CHEMISTRY,CHEM,Anti HCV,VHCV,blood,decimal,decimal,female,,,,,,,,
"Lady Aitchison Hospital, Lahore",Thyroid Function Tests,Standard,TFT,CHEMISTRY,CHEM,T3,TTT,blood,decimal,decimal,female,,,,,,,,
"Lady Aitchison Hospital, Lahore",Thyroid Function Tests,Standard,TFT,CHEMISTRY,CHEM,T4,TTTT,blood,decimal,decimal,female,,,,,,,,
"Lady Aitchison Hospital, Lahore",Thyroid Function Tests,Standard,TFT,CHEMISTRY,CHEM,TSH,TSHH,blood,decimal,decimal,female,,,,,,,,
"Lady Aitchison Hospital, Lahore",HORMONES,Standard,HRMNS,CHEMISTRY,CHEM,FSH,HFSH,blood,decimal,decimal,female,,,,,,,,
"Lady Aitchison Hospital, Lahore",HORMONES,Standard,HRMNS,CHEMISTRY,CHEM,LH,HLH,blood,decimal,decimal,female,,,,,,,,
"Lady Aitchison Hospital, Lahore",HORMONES,Standard,HRMNS,CHEMISTRY,CHEM,Prolectin,HPRL,blood,decimal,decimal,female,,,,,,,,
"Lady Aitchison Hospital, Lahore",HORMONES,Standard,HRMNS,CHEMISTRY,CHEM,Progesterone ,HPGT,blood,decimal,decimal,female,,,,,,,,
"Lady Aitchison Hospital, Lahore",HORMONES,Standard,HRMNS,CHEMISTRY,CHEM,Testosterone ,HTEST,blood,decimal,decimal,female,,,,,,,,
"Lady Aitchison Hospital, Lahore",HORMONES,Standard,HRMNS,CHEMISTRY,CHEM,B-HCG,HBHCG,blood,decimal,decimal,female,,,,,,,,
"Lady Aitchison Hospital, Lahore",FERTILITY,Standard,FRTLTY,CHEMISTRY,CHEM,Semen Analysis,HSEAN,blood,decimal,decimal,female,,,,,,,,
"Lady Aitchison Hospital, Lahore",Urine Complete Examination,standard,UCE,chemistry,CHEM,Volume,VLM,urine,decimal,decimal,male,0,150,years,Physical Examination,,,,
"Lady Aitchison Hospital, Lahore",Urine Complete Examination,standard,UCE,chemistry,CHEM,Volume,VLM,urine,decimal,decimal,female,0,150,years,Physical Examination,,,,
"Lady Aitchison Hospital, Lahore",Urine Complete Examination,standard,UCE,chemistry,CHEM,Colour,CLR,urine,string,string,male,0,150,years,"Light yellow ,Yellow, Pale yellow, Reddish, Smoky, Black","Light yellow ,Yellow, Pale yellow, Reddish, Smoky, Black","Light yellow ,Yellow, Pale yellow, Reddish, Smoky, Black",Physical Examination,
"Lady Aitchison Hospital, Lahore",Urine Complete Examination,standard,UCE,chemistry,CHEM,Colour,CLR,urine,string,string,female,0,150,years,"Light yellow ,Yellow, Pale yellow, Reddish, Smoky, Black","Light yellow ,Yellow, Pale yellow, Reddish, Smoky, Black","Light yellow ,Yellow, Pale yellow, Reddish, Smoky, Black",Physical Examination,
"Lady Aitchison Hospital, Lahore",Urine Complete Examination,standard,UCE,chemistry,CHEM,Apperance,APRNCE,urine,string,string,male,0,150,years,"Clear,Hazy,Turbid ","Clear,Hazy,Turbid ","Clear,Hazy,Turbid ",Physical Examination,
"Lady Aitchison Hospital, Lahore",Urine Complete Examination,standard,UCE,chemistry,CHEM,Apperance,APRNCE,urine,string,string,female,0,150,years,"Clear,Hazy,Turbid ","Clear,Hazy,Turbid ","Clear,Hazy,Turbid ",Physical Examination,
"Lady Aitchison Hospital, Lahore",Urine Complete Examination,standard,UCE,chemistry,CHEM,Specific Gravity ,SPG,urine,decimal,decimal,male,0,150,years,1.005,1.03,1.005-1.03,Chemical Examination,
"Lady Aitchison Hospital, Lahore",Urine Complete Examination,standard,UCE,chemistry,CHEM,Specific Gravity ,SPG,urine,decimal,decimal,female,0,150,years,1.005,1.03,1.005-1.03,Chemical Examination,
"Lady Aitchison Hospital, Lahore",Urine Complete Examination,standard,UCE,chemistry,CHEM,PH,PH,urine,decimal,decimal,male,0,150,years,5,8,5-8,Chemical Examination,
"Lady Aitchison Hospital, Lahore",Urine Complete Examination,standard,UCE,chemistry,CHEM,PH,PH,urine,decimal,decimal,female,0,150,years,5,8,5-8,Chemical Examination,
"Lady Aitchison Hospital, Lahore",Urine Complete Examination,standard,UCE,chemistry,CHEM,Sugar,SGR,urine,string,string,male,0,150,years,"Nil,+,++,+++","Nil,+,++,+++","Nil,+,++,+++",Chemical Examination,
"Lady Aitchison Hospital, Lahore",Urine Complete Examination,standard,UCE,chemistry,CHEM,Sugar,SGR,urine,string,string,female,0,150,years,"Nil,+,++,+++","Nil,+,++,+++","Nil,+,++,+++",Chemical Examination,
"Lady Aitchison Hospital, Lahore",Urine Complete Examination,standard,UCE,chemistry,CHEM,Ketone,KTN,urine,string,string,male,0,150,years,"Nil,+,++,+++","Nil,+,++,+++","Nil,+,++,+++",Chemical Examination,
"Lady Aitchison Hospital, Lahore",Urine Complete Examination,standard,UCE,chemistry,CHEM,Ketone,KTN,urine,string,string,female,0,150,years,"Nil,+,++,+++","Nil,+,++,+++","Nil,+,++,+++",Chemical Examination,
"Lady Aitchison Hospital, Lahore",Urine Complete Examination,standard,UCE,chemistry,CHEM,Protein,PRTN,urine,string,string,male,0,150,years,"Nil,Trace,+,++,+++","Nil,Trace,+,++,+++","Nil,Trace,+,++,+++",Chemical Examination,
"Lady Aitchison Hospital, Lahore",Urine Complete Examination,standard,UCE,chemistry,CHEM,Protein,PRTN,urine,string,string,female,0,150,years,"Nil,Trace,+,++,+++","Nil,Trace,+,++,+++","Nil,Trace,+,++,+++",Chemical Examination,
"Lady Aitchison Hospital, Lahore",Urine Complete Examination,standard,IRN,chemistry,CHEM,Bilirubin,BLB,urine,string,string,male,0,150,years,"Nil,+,++,+++","Nil,+,++,+++","Nil,+,++,+++",Chemical Examination,
"Lady Aitchison Hospital, Lahore",Urine Complete Examination,standard,UCE,chemistry,CHEM,Bilirubin,BLB,urine,string,string,female,0,150,years,"Nil,+,++,+++","Nil,+,++,+++","Nil,+,++,+++",Chemical Examination,
"Lady Aitchison Hospital, Lahore",Urine Complete Examination,standard,UCE,chemistry,CHEM,Nitrate,NTRT,urine,string,string,male,0,150,years,"Nil,Positive","Nil,Positive","Nil,Positive",Chemical Examination,
"Lady Aitchison Hospital, Lahore",Urine Complete Examination,standard,UCE,chemistry,CHEM,Nitrate,NTRT,urine,string,string,female,0,150,years,"Nil,Positive","Nil,Positive","Nil,Positive",Chemical Examination,
"Lady Aitchison Hospital, Lahore",Urine Complete Examination,standard,UCE,chemistry,CHEM,Urobilinogen,URBLN,urine,string,string,male,0,150,years,"Normal,+,++,+++","Normal,+,++,+++","Normal,+,++,+++",Chemical Examination,
"Lady Aitchison Hospital, Lahore",Urine Complete Examination,standard,UCE,chemistry,CHEM,Urobilinogen,URBLN,urine,string,string,female,0,150,years,"Normal,+,++,+++","Normal,+,++,+++","Normal,+,++,+++",Chemical Examination,
"Lady Aitchison Hospital, Lahore",Urine Complete Examination,standard,UCE,chemistry,CHEM,Blood,BLD,urine,string,string,male,0,150,years,"Nil,+,++,+++","Nil,+,++,+++","Nil,+,++,+++",Chemical Examination,
"Lady Aitchison Hospital, Lahore",Urine Complete Examination,standard,UCE,chemistry,CHEM,Blood,BLD,urine,string,string,female,0,150,years,"Nil,+,++,+++","Nil,+,++,+++","Nil,+,++,+++",Chemical Examination,
"Lady Aitchison Hospital, Lahore",Urine Complete Examination,standard,UCE,chemistry,CHEM,Leukocyte Esterase ,LCTE,urine,string,string,male,0,150,years,"Negative,+,++,+++ ","Negative,+,++,+++ ","Negative,+,++,+++ ",Chemical Examination,
"Lady Aitchison Hospital, Lahore",Urine Complete Examination,standard,UCE,chemistry,CHEM,Leukocyte Esterase ,LCTE,urine,string,string,female,0,150,years,"Negative,+,++,+++ ","Negative,+,++,+++ ","Negative,+,++,+++ ",Chemical Examination,
"Lady Aitchison Hospital, Lahore",Urine Complete Examination,standard,UCE,chemistry,CHEM,RBCs,RBS,/HPF,urine,decimal,decimal,male,0,150,years,0,5,0-5,Microscopic Examination
"Lady Aitchison Hospital, Lahore",Urine Complete Examination,standard,UCE,chemistry,CHEM,RBCs,RBS,/HPF,urine,decimal,decimal,female,0,150,years,0,5,0-5,Microscopic Examination
"Lady Aitchison Hospital, Lahore",Urine Complete Examination,standard,UCE,chemistry,CHEM,WBCs,WBC,/HPF,urine,decimal,decimal,male,0,150,years,0,4,0-4,Microscopic Examination
"Lady Aitchison Hospital, Lahore",Urine Complete Examination,standard,UCE,chemistry,CHEM,WBCs,WBC,/HPF,urine,decimal,decimal,female,0,150,years,0,4,0-4,Microscopic Examination
"Lady Aitchison Hospital, Lahore",Urine Complete Examination,standard,UCE,chemistry,CHEM,PUS,PUS,/HPF,urine,decimal,decimal,male,0,150,years,0,2,0-2,Microscopic Examination
"Lady Aitchison Hospital, Lahore",Urine Complete Examination,standard,UCE,chemistry,CHEM,PUS,PUS,/HPF,urine,decimal,decimal,female,0,150,years,0,2,0-2,Microscopic Examination
"Lady Aitchison Hospital, Lahore",Urine Complete Examination,standard,UCE,chemistry,CHEM,Epithelial cells,EPTC,/HPF,urine,decimal,decimal,male,0,150,years,0,5,0-5,Microscopic Examination
"Lady Aitchison Hospital, Lahore",Urine Complete Examination,standard,UCE,chemistry,CHEM,Epithelial cells,EPTC,/HPF,urine,decimal,decimal,female,0,150,years,0,5,0-5,Microscopic Examination
"Lady Aitchison Hospital, Lahore",Urine Complete Examination,standard,UCE,chemistry,CHEM,Waxy Casts,WXCS,/HPF,urine,decimal,decimal,male,0,150,years,0,0,0,Microscopic Examination
"Lady Aitchison Hospital, Lahore",Urine Complete Examination,standard,UCE,chemistry,CHEM,Waxy Casts,WXCS,/HPF,urine,decimal,decimal,female,0,150,years,0,0,0,Microscopic Examination
"Lady Aitchison Hospital, Lahore",Urine Complete Examination,standard,UCE,chemistry,CHEM,WBC Cast,WBCS,/HPF,urine,decimal,decimal,male,0,150,years,0,0,0,Microscopic Examination
"Lady Aitchison Hospital, Lahore",Urine Complete Examination,standard,UCE,chemistry,CHEM,WBC Cast,WBCS,/HPF,urine,decimal,decimal,female,0,150,years,0,0,0,Microscopic Examination
"Lady Aitchison Hospital, Lahore",Urine Complete Examination,standard,UCE,chemistry,CHEM,Cellular cast,CLRCST,/HPF,urine,decimal,decimal,male,0,150,years,0,0,0,Microscopic Examination
"Lady Aitchison Hospital, Lahore",Urine Complete Examination,standard,UCE,chemistry,CHEM,Cellular cast,CLRCST,/HPF,urine,decimal,decimal,female,0,150,years,0,0,0,Microscopic Examination
"Lady Aitchison Hospital, Lahore",Urine Complete Examination,standard,UCE,chemistry,CHEM,Hylin cast,HYCST,/HPF,urine,decimal,decimal,male,0,150,years,0,0,0,Microscopic Examination
"Lady Aitchison Hospital, Lahore",Urine Complete Examination,standard,UCE,chemistry,CHEM,Hylin cast,HYCST,/HPF,urine,decimal,decimal,female,0,150,years,0,0,0,Microscopic Examination
"Lady Aitchison Hospital, Lahore",Urine Complete Examination,standard,UCE,chemistry,CHEM,Bacteria,BCTR,urine,string,string,male,0,150,years,"Negative,Occasional, Moderate, Many","Negative,Occasional, Moderate, Many","Negative,Occasional, Moderate, Many",Microscopic Examination,
"Lady Aitchison Hospital, Lahore",Urine Complete Examination,standard,UCE,chemistry,CHEM,Bacteria,BCTR,urine,string,string,female,0,150,years,"Negative,Occasional, Moderate, Many","Negative,Occasional, Moderate, Many","Negative,Occasional, Moderate, Many",Microscopic Examination,
"Lady Aitchison Hospital, Lahore",Urine Complete Examination,standard,UCE,chemistry,CHEM,Yeast,YEAST,urine,string,string,male,0,150,years,"Nil,+,++,+++","Nil,+,++,+++","Nil,+,++,+++",Microscopic Examination,
"Lady Aitchison Hospital, Lahore",Urine Complete Examination,standard,UCE,chemistry,CHEM,Yeast,YEAST,urine,string,string,female,0,150,years,"Nil,+,++,+++","Nil,+,++,+++","Nil,+,++,+++",Microscopic Examination,
"Lady Aitchison Hospital, Lahore",Urine Complete Examination,standard,UCE,chemistry,CHEM,Mucous,MUCS,urine,string,string,male,0,150,years,"Nil,Occasional","Nil,Occasional","Nil,Occasional",Microscopic Examination,
"Lady Aitchison Hospital, Lahore",Urine Complete Examination,standard,UCE,chemistry,CHEM,Mucous,MUCS,urine,string,string,female,0,150,years,"Nil,Occasional","Nil,Occasional","Nil,Occasional",Microscopic Examination,
"Lady Aitchison Hospital, Lahore",Urine Complete Examination,standard,UCE,chemistry,CHEM,Crystal,CRTL,urine,string,string,male,0,150,years,"Nil,No abnormal crystals present","Nil,No abnormal crystals present","Nil,No abnormal crystals present",Microscopic Examination,
"Lady Aitchison Hospital, Lahore",Urine Complete Examination,standard,UCE,chemistry,CHEM,Crystal,CRTL,urine,string,string,female,0,150,years,"Nil,No abnormal crystals present","Nil,No abnormal crystals present","Nil,No abnormal crystals present",Microscopic Examination,
"Lady Aitchison Hospital, Lahore",Urine Complete Examination,standard,UCE,chemistry,CHEM,Amorphous Urates,AMUR,urine,string,string,male,0,150,years,"Few, Moderate, Many","Few, Moderate, Many","Few, Moderate, Many",Microscopic Examination,
"Lady Aitchison Hospital, Lahore",Urine Complete Examination,standard,UCE,chemistry,CHEM,Amorphous Urates,AMUR,urine,string,string,female,0,150,years,"Few, Moderate, Many","Few, Moderate, Many","Few, Moderate, Many",Microscopic Examination,
"Lady Aitchison Hospital, Lahore",Urine Complete Examination,standard,UCE,chemistry,CHEM,Calcium Oxalate ,CLOX,urine,string,string,male,0,150,years,"Few, Moderate, Many","Few, Moderate, Many","Few, Moderate, Many",Microscopic Examination,
"Lady Aitchison Hospital, Lahore",Urine Complete Examination,standard,UCE,chemistry,CHEM,Calcium Oxalate ,CLOX,urine,string,string,female,0,150,years,"Few, Moderate, Many","Few, Moderate, Many","Few, Moderate, Many",Microscopic Examination,
"Lady Aitchison Hospital, Lahore",Urine Complete Examination,standard,UCE,chemistry,CHEM,Uric acid,URAC,urine,string,string,male,0,150,years,"Few, Moderate, Many","Few, Moderate, Many","Few, Moderate, Many",Microscopic Examination,
"Lady Aitchison Hospital, Lahore",Urine Complete Examination,standard,UCE,chemistry,CHEM,Uric acid,URAC,urine,string,string,female,0,150,years,"Few, Moderate, Many","Few, Moderate, Many","Few, Moderate, Many",Microscopic Examination,
"Lady Aitchison Hospital, Lahore",Urine Complete Examination,standard,UCE,chemistry,CHEM,Cysteine ,CTLN,urine,string,string,male,0,150,years,"Few, Moderate, Many","Few, Moderate, Many","Few, Moderate, Many",Microscopic Examination,
"Lady Aitchison Hospital, Lahore",Urine Complete Examination,standard,UCE,chemistry,CHEM,Cysteine ,CTLN,urine,string,string,female,0,150,years,"Few, Moderate, Many","Few, Moderate, Many","Few, Moderate, Many",Microscopic Examination,
"Lady Aitchison Hospital, Lahore",Urine Complete Examination,standard,UCE,chemistry,CHEM,Struvite crystals/ Triple phosphate ,TRPH,urine,string,string,male,0,150,years,"Few, Moderate, Many","Few, Moderate, Many","Few, Moderate, Many",Microscopic Examination,
"Lady Aitchison Hospital, Lahore",Urine Complete Examination,standard,UCE,chemistry,CHEM,Struvite crystals/ Triple phosphate ,TRPH,urine,string,string,female,0,150,years,"Few, Moderate, Many","Few, Moderate, Many","Few, Moderate, Many",Microscopic Examination,
"Lady Aitchison Hospital, Lahore",Urine Complete Examination,standard,UCE,chemistry,CHEM,Miscellaneous,MISC,urine,decimal,decimal,male,0,150,years,Microscopic Examination,,,,
"Lady Aitchison Hospital, Lahore",Urine Complete Examination,standard,UCE,chemistry,CHEM,Miscellaneous,MISC,urine,decimal,decimal,female,0,150,years,Microscopic Examination,,,,
