hospital,profile_name,report_type,profile_code,lab_section,lab_section_code,parameter,parameter_code,uom,specimen,result_type1,result_type2,gender,age_start,age_end,date_unit,start_range,end_range,range_title,heading
"Jinnah Hospital, Lahore",CBC Profile,standard,CBCP,haematology,haem,Hemoglobin,HMGBN,g/dl,blood,decimal,decimal,male,0,150,Years,13,16,13-16,CBC
"Jinnah Hospital, Lahore",CBC Profile,standard,CBCP,haematology,haem,Hemoglobin,HMGBN,g/dl,blood,decimal,decimal,female,0,150,Years,12,14,43448,CBC
"Jinnah Hospital, Lahore",CBC Profile,standard,CBCP,haematology,haem,Red Cells Count(RBC),RBC,x10^9/L,blood,decimal,decimal,male,0,150,Years,4.8,5.8,4.8-5.8,CBC
"Jinnah Hospital, Lahore",CBC Profile,standard,CBCP,haematology,haem,Red Cells Count(RBC),RBC,x10^9/L,blood,decimal,decimal,female,0,150,Years,3.8,4.8,3.8-4.8,CBC
"Jinnah Hospital, Lahore",CBC Profile,standard,CBCP,haematology,haem,MCV,MCV,x 10 12/L,blood,decimal,decimal,male,0,150,Years,77,90,77-90,CBC
"Jinnah Hospital, Lahore",CBC Profile,standard,CBCP,haematology,haem,MCV,MCV,x 10 12/L,blood,decimal,decimal,female,0,150,Years,77,90,77-90,CBC
"Jinnah Hospital, Lahore",CBC Profile,standard,CBCP,haematology,haem,MCH,MCH,pg,blood,decimal,decimal,male,0,150,Years,26,32,26-32,CBC
"Jinnah Hospital, Lahore",CBC Profile,standard,CBCP,haematology,haem,MCH,MCH,pg,blood,decimal,decimal,female,0,150,Years,26,32,26-32,CBC
"Jinnah Hospital, Lahore",CBC Profile,standard,CBCP,haematology,haem,MCHC,MCHC,g/dl,blood,decimal,decimal,male,0,150,Years,22,30,22-30,CBC
"Jinnah Hospital, Lahore",CBC Profile,standard,CBCP,haematology,haem,MCHC,MCHC,g/dl,blood,decimal,decimal,female,0,150,Years,32,36,32-36,CBC
"Jinnah Hospital, Lahore",CBC Profile,standard,CBCP,haematology,haem,HCT,HCT,F/I %,blood,decimal,decimal,male,0,150,Years,39,52,39-52,CBC
"Jinnah Hospital, Lahore",CBC Profile,standard,CBCP,haematology,haem,HCT,HCT,F/I %,blood,decimal,decimal,female,0,150,Years,26,46,26-46,CBC
"Jinnah Hospital, Lahore",CBC Profile,standard,CBCP,haematology,haem,Platelet ,PLTLT,X10^9/L,blood,decimal,decimal,male,0,150,Years,150,400,150-400,CBC
"Jinnah Hospital, Lahore",CBC Profile,standard,CBCP,haematology,haem,Platelet ,PLTLT,X10^9/L,blood,decimal,decimal,female,0,150,Years,150,400,150-400,CBC
"Jinnah Hospital, Lahore",CBC Profile,standard,CBCP,haematology,haem,ESR,ESR,mm/1st Hr,blood,decimal,decimal,male,0,150,Years,0,10,0-10,CBC
"Jinnah Hospital, Lahore",CBC Profile,standard,CBCP,haematology,haem,ESR,ESR,mm/1st Hr,blood,decimal,decimal,female,0,150,Years,0,20,0-20,CBC
"Jinnah Hospital, Lahore",CBC Profile,standard,CBCP,haematology,haem,Anisocytsis,ANCYT,,blood,string,string,male,0,150,Years,"Yes,No","Yes,No","Yes,No",Morphology
"Jinnah Hospital, Lahore",CBC Profile,standard,CBCP,haematology,haem,Anisocytsis,ANCYT,,blood,string,string,female,0,150,Years,"Yes,No","Yes,No","Yes,No",Morphology
"Jinnah Hospital, Lahore",CBC Profile,standard,CBCP,haematology,haem,Poikilocytosis,PKLCT,,blood,string,string,male,0,150,Years,"Yes,No","Yes,No","Yes,No",Morphology
"Jinnah Hospital, Lahore",CBC Profile,standard,CBCP,haematology,haem,Poikilocytosis,PKLCT,,blood,string,string,female,0,150,Years,"Yes,No","Yes,No","Yes,No",Morphology
"Jinnah Hospital, Lahore",CBC Profile,standard,CBCP,haematology,haem,Microcytosis,MCRTS,,blood,string,string,male,0,150,Years,"Yes,No","Yes,No","Yes,No",Morphology
"Jinnah Hospital, Lahore",CBC Profile,standard,CBCP,haematology,haem,Microcytosis,MCRTS,,blood,string,string,female,0,150,Years,"Yes,No","Yes,No","Yes,No",Morphology
"Jinnah Hospital, Lahore",CBC Profile,standard,CBCP,haematology,haem,Hypochromia,HYPCH,,blood,string,string,male,0,150,Years,"Yes,No","Yes,No","Yes,No",Morphology
"Jinnah Hospital, Lahore",CBC Profile,standard,CBCP,haematology,haem,Hypochromia,HYPCH,,blood,string,string,female,0,150,Years,"Yes,No","Yes,No","Yes,No",Morphology
"Jinnah Hospital, Lahore",CBC Profile,standard,CBCP,haematology,haem,Polychromsia,PLYCH,,blood,string,string,male,0,150,Years,"Yes,No","Yes,No","Yes,No",Morphology
"Jinnah Hospital, Lahore",CBC Profile,standard,CBCP,haematology,haem,Polychromsia,PLYCH,,blood,string,string,female,0,150,Years,"Yes,No","Yes,No","Yes,No",Morphology
"Jinnah Hospital, Lahore",CBC Profile,standard,CBCP,haematology,haem,Spherocytes,SPCY,,blood,string,string,male,0,150,Years,"Yes,No","Yes,No","Yes,No",Morphology
"Jinnah Hospital, Lahore",CBC Profile,standard,CBCP,haematology,haem,Spherocytes,SPCY,,blood,string,string,female,0,150,Years,"Yes,No","Yes,No","Yes,No",Morphology
"Jinnah Hospital, Lahore",CBC Profile,standard,CBCP,haematology,haem,RBC Fragmentation,RBCF,,blood,string,string,male,0,150,Years,"Yes,No","Yes,No","Yes,No",Morphology
"Jinnah Hospital, Lahore",CBC Profile,standard,CBCP,haematology,haem,RBC Fragmentation,RBCF,,blood,string,string,female,0,150,Years,"Yes,No","Yes,No","Yes,No",Morphology
"Jinnah Hospital, Lahore",CBC Profile,standard,CBCP,haematology,haem,Elliptocytes,ELPCT,,blood,string,string,male,0,150,Years,"Yes,No","Yes,No","Yes,No",Morphology
"Jinnah Hospital, Lahore",CBC Profile,standard,CBCP,haematology,haem,Elliptocytes,ELPCT,,blood,string,string,female,0,150,Years,"Yes,No","Yes,No","Yes,No",Morphology
"Jinnah Hospital, Lahore",CBC Profile,standard,CBCP,haematology,haem,Target Cells,TRGC,,blood,string,string,male,0,150,Years,"Yes,No","Yes,No","Yes,No",Morphology
"Jinnah Hospital, Lahore",CBC Profile,standard,CBCP,haematology,haem,Target Cells,TRGC,,blood,string,string,female,0,150,Years,"Yes,No","Yes,No","Yes,No",Morphology
"Jinnah Hospital, Lahore",CBC Profile,standard,CBCP,haematology,haem,Reticulocytes,RTCCT,%,blood,decimal,string,male,0,150,Years,0.5,2.5,0.5-2.5,Morphology
"Jinnah Hospital, Lahore",CBC Profile,standard,CBCP,haematology,haem,Reticulocytes,RTCCT,%,blood,decimal,string,female,0,150,Years,0.5,2.5,0.5-2.5,Morphology
"Jinnah Hospital, Lahore",CBC Profile,standard,CBCP,haematology,haem,Nucleated RBC /100 WBC C,NRBC,/100 wbc,blood,string,string,male,0,150,Years,"Yes,No","Yes,No","Yes,No",Morphology
"Jinnah Hospital, Lahore",CBC Profile,standard,CBCP,haematology,haem,Nucleated RBC /100 WBC C,NRBC,/100 wbc,blood,string,string,female,0,150,Years,"Yes,No","Yes,No","Yes,No",Morphology
"Jinnah Hospital, Lahore",CBC Profile,standard,CBCP,haematology,haem,WBC,WBC,x10^9/L,blood,decimal,decimal,male,0,150,Years,4,11,4-11,Differential
"Jinnah Hospital, Lahore",CBC Profile,standard,CBCP,haematology,haem,WBC,WBC,x10^9/L,blood,decimal,decimal,female,0,150,Years,4,11,4-11,Differential
"Jinnah Hospital, Lahore",CBC Profile,standard,CBCP,haematology,haem,Metamyelocytes,MMCT,%,blood,decimal,decimal,male,0,150,Years,,,,Differential
"Jinnah Hospital, Lahore",CBC Profile,standard,CBCP,haematology,haem,Metamyelocytes,MMCT,%,blood,decimal,decimal,female,0,150,Years,,,,Differential
"Jinnah Hospital, Lahore",CBC Profile,standard,CBCP,haematology,haem,Neutrophils,NTPH,%,blood,decimal,decimal,male,0,150,Years,40,75,40-75,Differential
"Jinnah Hospital, Lahore",CBC Profile,standard,CBCP,haematology,haem,Neutrophils,NTPH,%,blood,decimal,decimal,female,0,150,Years,40,75,40-75,Differential
"Jinnah Hospital, Lahore",CBC Profile,standard,CBCP,haematology,haem,Myelocytes,MYCT,%,blood,decimal,decimal,male,0,150,Years,,,,Differential
"Jinnah Hospital, Lahore",CBC Profile,standard,CBCP,haematology,haem,Myelocytes,MYCT,%,blood,decimal,decimal,female,0,150,Years,,,,Differential
"Jinnah Hospital, Lahore",CBC Profile,standard,CBCP,haematology,haem,Lymphocytes,LPCT,%,blood,decimal,decimal,male,0,150,Years,20,50,20-50,Differential
"Jinnah Hospital, Lahore",CBC Profile,standard,CBCP,haematology,haem,Lymphocytes,LPCT,%,blood,decimal,decimal,female,0,150,Years,20,50,20-50,Differential
"Jinnah Hospital, Lahore",CBC Profile,standard,CBCP,haematology,haem,Pormyelocytes,PMCT,%,blood,decimal,decimal,male,0,150,Years,,,,Differential
"Jinnah Hospital, Lahore",CBC Profile,standard,CBCP,haematology,haem,Pormyelocytes,PM,%,blood,decimal,decimal,female,0,150,Years,,,,Differential
"Jinnah Hospital, Lahore",CBC Profile,standard,CBCP,haematology,haem,Monocytes,MNCT,%,blood,decimal,decimal,male,0,150,Years,2,10,2-10,Differential
"Jinnah Hospital, Lahore",CBC Profile,standard,CBCP,haematology,haem,Monocytes,MNCT,%,blood,decimal,decimal,female,0,150,Years,2,10,2-10,Differential
"Jinnah Hospital, Lahore",CBC Profile,standard,CBCP,haematology,haem,Blast Cells,BSTC,%,blood,decimal,decimal,male,0,150,Years,,,,Differential
"Jinnah Hospital, Lahore",CBC Profile,standard,CBCP,haematology,haem,Blast Cells,BSTC,%,blood,decimal,decimal,female,0,150,Years,,,,Differential
"Jinnah Hospital, Lahore",CBC Profile,standard,CBCP,haematology,haem,Eosinophills,ESPH,%,blood,decimal,decimal,male,0,150,Years,1,6,1-6,Differential
"Jinnah Hospital, Lahore",CBC Profile,standard,CBCP,haematology,haem,Eosinophills,ESPH,%,blood,decimal,decimal,female,0,150,Years,1,6,1-6,Differential
"Jinnah Hospital, Lahore",CBC Profile,standard,CBCP,haematology,haem,Basophills,BSPH,%,blood,decimal,decimal,male,0,150,Years,,,,Differential
"Jinnah Hospital, Lahore",CBC Profile,standard,CBCP,haematology,haem,Basophills,BSPH,%,blood,decimal,decimal,female,0,150,Years,,,,Differential
"Jinnah Hospital, Lahore",CBC Profile,standard,CBCP,haematology,haem,Cold Ugglutinin,CLDUG,,blood,string,string,male,0,150,Years,"Yes,No","Yes,No","Yes,No",Differential
"Jinnah Hospital, Lahore",CBC Profile,standard,CBCP,haematology,haem,Cold Ugglutinin,CLDUG,,blood,string,string,female,0,150,Years,"Yes,No","Yes,No","Yes,No",Differential
"Jinnah Hospital, Lahore",CBC Profile,standard,CBCP,haematology,haem,Blister Cell,BSTRC,,blood,string,string,male,0,150,Years,"Yes,No","Yes,No","Yes,No",Differential
"Jinnah Hospital, Lahore",CBC Profile,standard,CBCP,haematology,haem,Blister Cell,BSTRC,,blood,string,string,female,0,150,Years,"Yes,No","Yes,No","Yes,No",Differential
"Jinnah Hospital, Lahore",CBC Profile,standard,CBCP,haematology,haem,Acanthocyte,ATHCT,,blood,string,string,male,0,150,Years,"Yes,No","Yes,No","Yes,No",Differential
"Jinnah Hospital, Lahore",CBC Profile,standard,CBCP,haematology,haem,Acanthocyte,ATHCT,,blood,string,string,female,0,150,Years,"Yes,No","Yes,No","Yes,No",Differential
"Jinnah Hospital, Lahore",CBC Profile,standard,CBCP,haematology,haem,Roulex Formation,RLXFR,,blood,string,string,male,0,150,Years,"Yes,No","Yes,No","Yes,No",Differential
"Jinnah Hospital, Lahore",CBC Profile,standard,CBCP,haematology,haem,Roulex Formation,RLXFR,,blood,string,string,female,0,150,Years,"Yes,No","Yes,No","Yes,No",Differential
"Jinnah Hospital, Lahore",CBC Profile,standard,CBCP,haematology,haem,Malaria Parasite,MLP,,blood,string,string,male,0,150,Years,"Yes,No","Yes,No","Yes,No",malaria parasite
"Jinnah Hospital, Lahore",CBC Profile,standard,CBCP,haematology,haem,Haemo Parasite,HMP,,blood,string,string,female,0,150,Years,"Yes,No","Yes,No","Yes,No",haemo parasite
"Jinnah Hospital, Lahore",CBC Profile,standard,CBCP,haematology,haem,TLC,TLC,x10^9/L,blood,decimal,decimal,male,0,150,Years,4,11,4-11,
"Jinnah Hospital, Lahore",CBC Profile,standard,CBCP,haematology,haem,TLC,TLC,x10^9/L,blood,decimal,decimal,female,0,150,Years,4,11,4-11,
"Jinnah Hospital, Lahore",Coagulation Profile,standard,COGP,haematology,haem,Hb,HB,g/dl,blood,decimal,decimal,male,0,150,Years,13,16.5,13-16.5,Peripheral Film Finding
"Jinnah Hospital, Lahore",Coagulation Profile,standard,COGP,haematology,haem,TLC,TLC,x10^9/L,blood,decimal,decimal,male,0,150,Years,4,11,4-11,Peripheral Film Finding
"Jinnah Hospital, Lahore",Coagulation Profile,standard,COGP,haematology,haem,Platelet ,PLTLT,X10^9/L,blood,decimal,decimal,male,0,150,Years,150,400,150-400,Peripheral Film Finding
"Jinnah Hospital, Lahore",Coagulation Profile,standard,COGP,haematology,haem,Bleeding Time,BDT,minutes,blood,decimal,text_area,male,0,150,Years,0,9,0-9 ,
"Jinnah Hospital, Lahore",Coagulation Profile,standard,COGP,haematology,haem,Prothrombin Time ,PTT  ,seconds,blood,decimal,text_area,male,0,150,Years,12,14,12-14,
"Jinnah Hospital, Lahore",Coagulation Profile,standard,COGP,haematology,haem,INR,INR,,blood,decimal,text_area,male,0,150,Years,,,,
"Jinnah Hospital, Lahore",Coagulation Profile,standard,COGP,haematology,haem,APTT,APTT,sec,blood,decimal,text_area,male,0,150,Years,26,33,26-33 ,
"Jinnah Hospital, Lahore",Coagulation Profile,standard,COGP,haematology,haem,Thrombin Time,TBT,sec,blood,decimal,text_area,male,0,150,Years,,,,
"Jinnah Hospital, Lahore",Coagulation Profile,standard,COGP,haematology,haem,Fibrinogen TiMe,FGT,mg/dl,blood,decimal,text_area,male,0,150,Years,200,400,200-400,
"Jinnah Hospital, Lahore",Coagulation Profile,standard,COGP,haematology,haem,Fibrinogen Degradation Products (FDP),FDP,mg/L,blood,text_area,text_area,male,0,150,Years,,,,
"Jinnah Hospital, Lahore",Coagulation Profile,standard,COGP,haematology,haem,D-Dimer,DDM,ng/ml,blood,text_area,text_area,male,0,150,Years,,,,
"Jinnah Hospital, Lahore",Coagulation Profile,standard,COGP,haematology,haem,Mixing Studies,MXS,,blood,text_area,text_area,male,0,150,Years,,,,Mixing Studies
"Jinnah Hospital, Lahore",Coagulation Profile,standard,COGP,haematology,haem,Factor Assay,FCTA,,blood,text_area,text_area,male,0,150,Years,,,,Factor Assay
"Jinnah Hospital, Lahore",Coagulation Profile,standard,COGP,haematology,haem,Platelet Aggregation Studies,PAS,,blood,text_area,text_area,male,0,150,Years,,,,Platelet Aggregation Studies
"Jinnah Hospital, Lahore",Coagulation Profile,standard,COGP,haematology,haem,ADP,ADP,%,blood,decimal,decimal,male,0,150,Years,,,,
"Jinnah Hospital, Lahore",Coagulation Profile,standard,COGP,haematology,haem,Collagen,CLGN,%,blood,decimal,decimal,male,0,150,Years,,,,
"Jinnah Hospital, Lahore",Coagulation Profile,standard,COGP,haematology,haem,Ristocetin,RTCT,%,blood,decimal,decimal,male,0,150,Years,,,,
"Jinnah Hospital, Lahore",Coagulation Profile,standard,COGP,haematology,haem,Epinephrine,ENPH,%,blood,decimal,decimal,male,0,150,Years,,,,
"Jinnah Hospital, Lahore",Coagulation Profile,standard,COGP,haematology,haem,Platelet Count,PLTC,x10^9/L,blood,decimal,decimal,male,0,150,Years,150,400,150-400,
"Jinnah Hospital, Lahore",Coagulation Profile,standard,COGP,haematology,haem,APTT ratio,APTTR,%,blood,text_area,text_area,male,0,150,Years,0.8,1.2,0.8-1.2,
"Jinnah Hospital, Lahore",Coagulation Profile,standard,COGP,haematology,haem,Patient+ Normal,PTNN,seconds,blood,text_area,text_area,male,0,150,Years,,,,Mixing Studies
"Jinnah Hospital, Lahore",Coagulation Profile,standard,COGP,haematology,haem,Patient+aged Plasma/serum,PAPS,seconds,blood,text_area,text_area,male,0,150,Years,,,,
"Jinnah Hospital, Lahore",Coagulation Profile,standard,COGP,haematology,haem,Patient+absorbed plasma,PAP ,seconds,blood,text_area,text_area,male,0,150,Years,,,,
"Jinnah Hospital, Lahore",Coagulation Profile,standard,COGP,haematology,haem, Factor Assay analyse,FCAA,seconds,blood,text_area,text_area,male,0,150,Years,,,,Factor Assay
"Jinnah Hospital, Lahore",Coagulation Profile,standard,COGP,haematology,haem,Hb,HB,g/dl,blood,decimal,decimal,female,0,150,Years,13,16.5,13-16.5,Peripheral Film Finding
"Jinnah Hospital, Lahore",Coagulation Profile,standard,COGP,haematology,haem,TLC,TLC,x10^9/L,blood,decimal,decimal,female,0,150,Years,4,11,4-11,Peripheral Film Finding
"Jinnah Hospital, Lahore",Coagulation Profile,standard,COGP,haematology,haem,Platelet ,PLTLT,X10^9/L,blood,decimal,decimal,female,0,150,Years,150,400,150-400,Peripheral Film Finding
"Jinnah Hospital, Lahore",Coagulation Profile,standard,COGP,haematology,haem,Bleeding Time,BDT,minutes,blood,text_area,text_area,female,0,150,Years,0,9,0-9 ,
"Jinnah Hospital, Lahore",Coagulation Profile,standard,COGP,haematology,haem,Prothrombin Time ,PTT  ,seconds,blood,text_area,text_area,female,0,150,Years,12,14,12-14,
"Jinnah Hospital, Lahore",Coagulation Profile,standard,COGP,haematology,haem,INR,INR,,blood,text_area,text_area,female,0,150,Years,,,,
"Jinnah Hospital, Lahore",Coagulation Profile,standard,COGP,haematology,haem,APTT,APTT,sec,blood,text_area,text_area,female,0,150,Years,26,33,26-33 ,
"Jinnah Hospital, Lahore",Coagulation Profile,standard,COGP,haematology,haem,Thrombin Time,TBT,sec,blood,text_area,text_area,female,0,150,Years,,,,
"Jinnah Hospital, Lahore",Coagulation Profile,standard,COGP,haematology,haem,Fibrinogen TiMe,FGT,mg/dl,blood,text_area,text_area,female,0,150,Years,200,400,200-400,
"Jinnah Hospital, Lahore",Coagulation Profile,standard,COGP,haematology,haem,Fibrinogen Degradation Products (FDP),FDP,mg/L,blood,text_area,text_area,female,0,150,Years,,,,
"Jinnah Hospital, Lahore",Coagulation Profile,standard,COGP,haematology,haem,D-Dimer,DDM,ng/ml,blood,text_area,text_area,female,0,150,Years,,,,
"Jinnah Hospital, Lahore",Coagulation Profile,standard,COGP,haematology,haem,Mixing Studies,MXS,,blood,text_area,text_area,female,0,150,Years,,,,Mixing Studies
"Jinnah Hospital, Lahore",Coagulation Profile,standard,COGP,haematology,haem,Factor Assay,FCTA,,blood,text_area,text_area,female,0,150,Years,,,,Factor Assay
"Jinnah Hospital, Lahore",Coagulation Profile,standard,COGP,haematology,haem,Platelet Aggregation Studies,PAS,,blood,text_area,text_area,female,0,150,Years,,,,Platelet Aggregation Studies
"Jinnah Hospital, Lahore",Coagulation Profile,standard,COGP,haematology,haem,ADP,ADP,%,blood,decimal,decimal,female,0,150,Years,,,,
"Jinnah Hospital, Lahore",Coagulation Profile,standard,COGP,haematology,haem,Collagen,CLGN,%,blood,decimal,decimal,female,0,150,Years,,,,
"Jinnah Hospital, Lahore",Coagulation Profile,standard,COGP,haematology,haem,Ristocetin,RTCT,%,blood,decimal,decimal,female,0,150,Years,,,,
"Jinnah Hospital, Lahore",Coagulation Profile,standard,COGP,haematology,haem,Epinephrine,ENPH,%,blood,decimal,decimal,female,0,150,Years,,,,
"Jinnah Hospital, Lahore",Coagulation Profile,standard,COGP,haematology,haem,Platelet Count,PLTC,x10^9/L,blood,decimal,decimal,female,0,150,Years,150,400,150-400,
"Jinnah Hospital, Lahore",Coagulation Profile,standard,COGP,haematology,haem,APTT ratio,APTTR,%,blood,text_area,text_area,female,0,150,Years,0.8,1.2,0.8-1.2,
"Jinnah Hospital, Lahore",Coagulation Profile,standard,COGP,haematology,haem,Patient+ Normal,PTNN,seconds,blood,text_area,text_area,female,0,150,Years,,,,Mixing Studies
"Jinnah Hospital, Lahore",Coagulation Profile,standard,COGP,haematology,haem,Patient+aged Plasma/serum,PAPS,seconds,blood,text_area,text_area,female,0,150,Years,,,,
"Jinnah Hospital, Lahore",Coagulation Profile,standard,COGP,haematology,haem,Patient+absorbed plasma,PAP ,seconds,blood,text_area,text_area,female,0,150,Years,,,,
"Jinnah Hospital, Lahore",Coagulation Profile,standard,COGP,haematology,haem, Factor Assay analyse,FCAA,seconds,blood,text_area,text_area,female,0,150,Years,,,,Factor Assay
"Jinnah Hospital, Lahore",Serum Ferritin Profile,standard,SFP,haematology,haem,Serum Ferritin,SFRTN,ng/ml,blood,decimal,decimal,male,1,30,Days,6,400,6-400,
"Jinnah Hospital, Lahore",Serum Ferritin Profile,standard,SFP,haematology,haem,Serum Ferritin,SFRTN,ng/ml,blood,decimal,decimal,female,1,30,Days,6,515,6-515,
"Jinnah Hospital, Lahore",Serum Ferritin Profile,standard,SFP,haematology,haem,Serum Ferritin,SFRTN,ng/ml,blood,decimal,decimal,male,1,6,Months,6,410,6-410,
"Jinnah Hospital, Lahore",Serum Ferritin Profile,standard,SFP,haematology,haem,Serum Ferritin,SFRTN,ng/ml,blood,decimal,decimal,female,1,6,Months,6,340,6-340,
"Jinnah Hospital, Lahore",Serum Ferritin Profile,standard,SFP,haematology,haem,Serum Ferritin,SFRTN,ng/ml,blood,decimal,decimal,male,7,12,Months,6,80,6-80,
"Jinnah Hospital, Lahore",Serum Ferritin Profile,standard,SFP,haematology,haem,Serum Ferritin,SFRTN,ng/ml,blood,decimal,decimal,female,7,12,Months,6,45,6-45,
"Jinnah Hospital, Lahore",Serum Ferritin Profile,standard,SFP,haematology,haem,Serum Ferritin,SFRTN,ng/ml,blood,decimal,decimal,male,1,5,Years,6,24,6-24,
"Jinnah Hospital, Lahore",Serum Ferritin Profile,standard,SFP,haematology,haem,Serum Ferritin,SFRTN,ng/ml,blood,decimal,decimal,female,1,5,Years,6,24,6-24,
"Jinnah Hospital, Lahore",Serum Ferritin Profile,standard,SFP,haematology,haem,Serum Ferritin,SFRTN,ng/ml,blood,decimal,decimal,male,6,9,Years,10,55,10-55,
"Jinnah Hospital, Lahore",Serum Ferritin Profile,standard,SFP,haematology,haem,Serum Ferritin,SFRTN,ng/ml,blood,decimal,decimal,female,6,9,Years,10,55,10-55,
"Jinnah Hospital, Lahore",Serum Ferritin Profile,standard,SFP,haematology,haem,Serum Ferritin,SFRTN,ng/ml,blood,decimal,decimal,male,10,14,Years,23,70,23-70,
"Jinnah Hospital, Lahore",Serum Ferritin Profile,standard,SFP,haematology,haem,Serum Ferritin,SFRTN,ng/ml,blood,decimal,decimal,female,10,14,Years,6,40,6-40,
"Jinnah Hospital, Lahore",Serum Ferritin Profile,standard,SFP,haematology,haem,Serum Ferritin,SFRTN,ng/ml,blood,decimal,decimal,male,14,18,Years,23,70,23-70,
"Jinnah Hospital, Lahore",Serum Ferritin Profile,standard,SFP,haematology,haem,Serum Ferritin,SFRTN,ng/ml,blood,decimal,decimal,female,14,18,Years,6,40,6-40,
"Jinnah Hospital, Lahore",Serum Ferritin Profile,standard,SFP,haematology,haem,Serum Ferritin,SFRTN,ng/ml,blood,decimal,decimal,male,18,150,Years,15,300,15-300,
"Jinnah Hospital, Lahore",Serum Ferritin Profile,standard,SFP,haematology,haem,Serum Ferritin,SFRTN,ng/ml,blood,decimal,decimal,female,18,150,Years,15,200,15-200,
"Jinnah Hospital, Lahore",Platelet Aggregation Profile,standard,PAP,haematology,haem,ADP,ADP,%,blood,decimal,decimal,male,0,150,Years,,,,platelet aggregation studies
"Jinnah Hospital, Lahore",Platelet Aggregation Profile,standard,PAP,haematology,haem,Collagen,CLGN,%,blood,decimal,decimal,male,0,150,Years,,,,platelet aggregation studies
"Jinnah Hospital, Lahore",Platelet Aggregation Profile,standard,PAP,haematology,haem,Ristocetin,RSTCT,%,blood,decimal,decimal,male,0,150,Years,,,,platelet aggregation studies
"Jinnah Hospital, Lahore",Platelet Aggregation Profile,standard,PAP,haematology,haem,Epinephrine,EPPH,%,blood,decimal,decimal,male,0,150,Years,,,,platelet aggregation studies
"Jinnah Hospital, Lahore",Platelet Aggregation Profile,standard,PAP,haematology,haem,Arachidonic Acid,ADA,%,blood,decimal,decimal,male,0,150,Years,,,,platelet aggregation studies
"Jinnah Hospital, Lahore",Platelet Aggregation Profile,standard,PAP,haematology,haem,Platelet Count,PLTC,x10^9/L,blood,decimal,decimal,male,0,150,Years,150,400,150-400,platelet aggregation studies
"Jinnah Hospital, Lahore",Platelet Aggregation Profile,standard,PAP,haematology,haem,Bleeding Time,BDT,minutes,blood,text_area,text_area,male,0,150,Years,3,9,3-9,platelet aggregation studies
"Jinnah Hospital, Lahore",Platelet Aggregation Profile,standard,PAP,haematology,haem,Flow Cytometery,FCTMT,,blood,text_area,text_area,male,0,150,Years,,,,
"Jinnah Hospital, Lahore",Platelet Aggregation Profile,standard,PAP,haematology,haem,ADP,ADP,%,blood,decimal,decimal,female,0,150,Years,,,,platelet aggregation studies
"Jinnah Hospital, Lahore",Platelet Aggregation Profile,standard,PAP,haematology,haem,Collagen,CLGN,%,blood,decimal,decimal,female,0,150,Years,,,,platelet aggregation studies
"Jinnah Hospital, Lahore",Platelet Aggregation Profile,standard,PAP,haematology,haem,Ristocetin,RSTCT,%,blood,decimal,decimal,female,0,150,Years,,,,platelet aggregation studies
"Jinnah Hospital, Lahore",Platelet Aggregation Profile,standard,PAP,haematology,haem,Epinephrine,EPPH,%,blood,decimal,decimal,female,0,150,Years,,,,platelet aggregation studies
"Jinnah Hospital, Lahore",Platelet Aggregation Profile,standard,PAP,haematology,haem,Arachidonic Acid,ADA,%,blood,decimal,decimal,female,0,150,Years,,,,platelet aggregation studies
"Jinnah Hospital, Lahore",Platelet Aggregation Profile,standard,PAP,haematology,haem,Platelet Count,PLTC,x10^9/L,blood,decimal,decimal,female,0,150,Years,150,400,150-400,platelet aggregation studies
"Jinnah Hospital, Lahore",Platelet Aggregation Profile,standard,PAP,haematology,haem,Bleeding Time,BDT,minutes,blood,text_area,text_area,female,0,150,Years,3,9,3-9,platelet aggregation studies
"Jinnah Hospital, Lahore",Platelet Aggregation Profile,standard,PAP,haematology,haem,Flow Cytometery,FCTMT,,blood,text_area,text_area,female,0,150,Years,,,,
"Jinnah Hospital, Lahore",Fanconis Anemia Registry Profile,standard,PARP,haematology,haem,Hb,HB,g/dl,blood,decimal,decimal,male,0,150,Years,13,16.5,13-16.5,Investigation
"Jinnah Hospital, Lahore",Fanconis Anemia Registry Profile,standard,PARP,haematology,haem,WBC,WBC,x10^9/L%,blood,decimal,decimal,male,0,150,Years,4,11,4-11,
"Jinnah Hospital, Lahore",Fanconis Anemia Registry Profile,standard,PARP,haematology,haem,Platelet Count,PLTC,X10^9/L,blood,decimal,decimal,male,0,150,Years,150,400,150-400,
"Jinnah Hospital, Lahore",Fanconis Anemia Registry Profile,standard,PARP,haematology,haem,ESR,ESR,mm/1st hour,blood,decimal,decimal,male,0,150,Years,2,12,2-12,
"Jinnah Hospital, Lahore",Fanconis Anemia Registry Profile,standard,PARP,haematology,haem,Reticulocytes,RTCCT,%,blood,decimal,decimal,male,0,150,Years,,,,ON EXMANINATION
"Jinnah Hospital, Lahore",Fanconis Anemia Registry Profile,standard,PARP,haematology,haem,Presenting Complaints,PESEN,,blood,text_area,text_area,male,0,150,Years,,,,
"Jinnah Hospital, Lahore",Fanconis Anemia Registry Profile,standard,PARP,haematology,haem,Pallor,PLLOR,,blood,string,string,male,0,150,Years,"Yes,No","Yes,No","Yes,No",
"Jinnah Hospital, Lahore",Fanconis Anemia Registry Profile,standard,PARP,haematology,haem,Lymphadenopathy,LPDNP,,blood,string,string,male,0,150,Years,"Yes,No","Yes,No","Yes,No",
"Jinnah Hospital, Lahore",Fanconis Anemia Registry Profile,standard,PARP,haematology,haem,Bruises,BRUS,,blood,string,string,male,0,150,Years,"Yes,No","Yes,No","Yes,No",
"Jinnah Hospital, Lahore",Fanconis Anemia Registry Profile,standard,PARP,haematology,haem,Hepatomegaly,HPTMG,,blood,string,string,male,0,150,Years,"Yes,No","Yes,No","Yes,No",
"Jinnah Hospital, Lahore",Fanconis Anemia Registry Profile,standard,PARP,haematology,haem,Splenomegaly,SPNMG,,blood,string,string,male,0,150,Years,"Yes,No","Yes,No","Yes,No",
"Jinnah Hospital, Lahore",Fanconis Anemia Registry Profile,standard,PARP,haematology,haem,Failure to Thrive,FTT,,blood,string,string,male,0,150,Years,"Yes,No","Yes,No","Yes,No",
"Jinnah Hospital, Lahore",Fanconis Anemia Registry Profile,standard,PARP,haematology,haem,Polydactyly,PYDCT,,blood,string,string,male,0,150,Years,"Yes,No","Yes,No","Yes,No",
"Jinnah Hospital, Lahore",Fanconis Anemia Registry Profile,standard,PARP,haematology,haem,Eye/Ear Defect,EED,,blood,string,string,male,0,150,Years,"Yes,No","Yes,No","Yes,No",
"Jinnah Hospital, Lahore",Fanconis Anemia Registry Profile,standard,PARP,haematology,haem,Skin Discoloration,SKDCL,,blood,string,string,male,0,150,Years,"Yes,No","Yes,No","Yes,No",
"Jinnah Hospital, Lahore",Fanconis Anemia Registry Profile,standard,PARP,haematology,haem,Scoliosis,SCLS,,blood,string,string,male,0,150,Years,"Yes,No","Yes,No","Yes,No",
"Jinnah Hospital, Lahore",Fanconis Anemia Registry Profile,standard,PARP,haematology,haem,Ventricular spetal defects,VSD,,blood,string,string,male,0,150,Years,"Yes,No","Yes,No","Yes,No",
"Jinnah Hospital, Lahore",Fanconis Anemia Registry Profile,standard,PARP,haematology,haem,Others,OTHR,,blood,string,string,male,0,150,Years,"Yes,No","Yes,No","Yes,No",
"Jinnah Hospital, Lahore",Fanconis Anemia Registry Profile,standard,PARP,haematology,haem,Bone Marrow Biopsy,BMP,,blood,text_area,text_area,male,0,150,Years,,,,
"Jinnah Hospital, Lahore",Fanconis Anemia Registry Profile,standard,PARP,haematology,haem,Bone Marrow Trephine,BMT,,blood,text_area,text_area,male,0,150,Years,,,,
"Jinnah Hospital, Lahore",Fanconis Anemia Registry Profile,standard,PARP,haematology,haem,Chromosomal Breakage Analysis,PROMO,,blood,text_area,text_area,male,0,150,Years,,,,
"Jinnah Hospital, Lahore",Fanconis Anemia Registry Profile,standard,PARP,haematology,haem,Diagnosis,PAGNO,,blood,text_area,text_area,male,0,150,Years,,,,
"Jinnah Hospital, Lahore",Fanconis Anemia Registry Profile,standard,PARP,haematology,haem,Data Taken By,PTA T,,blood,text_area,text_area,male,0,150,Years,,,,
"Jinnah Hospital, Lahore",Fanconis Anemia Registry Profile,standard,PARP,haematology,haem,Hb,HB,g/dl,blood,decimal,decimal,female,0,150,Years,13,16.5,13-16.5,Investigation
"Jinnah Hospital, Lahore",Fanconis Anemia Registry Profile,standard,PARP,haematology,haem,WBC,WBC,x10^9/L%,blood,decimal,decimal,female,0,150,Years,4,11,4-11,
"Jinnah Hospital, Lahore",Fanconis Anemia Registry Profile,standard,PARP,haematology,haem,Platelet Count,PLTC,X10^9/L,blood,decimal,decimal,female,0,150,Years,150,400,150-400,
"Jinnah Hospital, Lahore",Fanconis Anemia Registry Profile,standard,PARP,haematology,haem,ESR,ESR,mm/1st hour,blood,decimal,decimal,female,0,150,Years,2,12,2-12,
"Jinnah Hospital, Lahore",Fanconis Anemia Registry Profile,standard,PARP,haematology,haem,Reticulocytes,RTCCT,%,blood,decimal,decimal,female,0,150,Years,,,,ON EXMANINATION
"Jinnah Hospital, Lahore",Fanconis Anemia Registry Profile,standard,PARP,haematology,haem,Presenting Complaints,PESEN,,blood,text_area,text_area,female,0,150,Years,,,,
"Jinnah Hospital, Lahore",Fanconis Anemia Registry Profile,standard,PARP,haematology,haem,Pallor,PLLOR,,blood,string,string,female,0,150,Years,"Yes,No","Yes,No","Yes,No",
"Jinnah Hospital, Lahore",Fanconis Anemia Registry Profile,standard,PARP,haematology,haem,Lymphadenopathy,LPDNP,,blood,string,string,female,0,150,Years,"Yes,No","Yes,No","Yes,No",
"Jinnah Hospital, Lahore",Fanconis Anemia Registry Profile,standard,PARP,haematology,haem,Bruises,BRUS,,blood,string,string,female,0,150,Years,"Yes,No","Yes,No","Yes,No",
"Jinnah Hospital, Lahore",Fanconis Anemia Registry Profile,standard,PARP,haematology,haem,Hepatomegaly,HPTMG,,blood,string,string,female,0,150,Years,"Yes,No","Yes,No","Yes,No",
"Jinnah Hospital, Lahore",Fanconis Anemia Registry Profile,standard,PARP,haematology,haem,Splenomegaly,SPNMG,,blood,string,string,female,0,150,Years,"Yes,No","Yes,No","Yes,No",
"Jinnah Hospital, Lahore",Fanconis Anemia Registry Profile,standard,PARP,haematology,haem,Failure to Thrive,FTT,,blood,string,string,female,0,150,Years,"Yes,No","Yes,No","Yes,No",
"Jinnah Hospital, Lahore",Fanconis Anemia Registry Profile,standard,PARP,haematology,haem,Polydactyly,PYDCT,,blood,string,string,female,0,150,Years,"Yes,No","Yes,No","Yes,No",
"Jinnah Hospital, Lahore",Fanconis Anemia Registry Profile,standard,PARP,haematology,haem,Eye/Ear Defect,EED,,blood,string,string,female,0,150,Years,"Yes,No","Yes,No","Yes,No",
"Jinnah Hospital, Lahore",Fanconis Anemia Registry Profile,standard,PARP,haematology,haem,Skin Discoloration,SKDCL,,blood,string,string,female,0,150,Years,"Yes,No","Yes,No","Yes,No",
"Jinnah Hospital, Lahore",Fanconis Anemia Registry Profile,standard,PARP,haematology,haem,Scoliosis,SCLS,,blood,string,string,female,0,150,Years,"Yes,No","Yes,No","Yes,No",
"Jinnah Hospital, Lahore",Fanconis Anemia Registry Profile,standard,PARP,haematology,haem,Ventricular spetal defects,VSD,,blood,string,string,female,0,150,Years,"Yes,No","Yes,No","Yes,No",
"Jinnah Hospital, Lahore",Fanconis Anemia Registry Profile,standard,PARP,haematology,haem,Others,OTHR,,blood,string,string,female,0,150,Years,"Yes,No","Yes,No","Yes,No",
"Jinnah Hospital, Lahore",Fanconis Anemia Registry Profile,standard,PARP,haematology,haem,Bone Marrow Biopsy,BMP,,blood,text_area,text_area,female,0,150,Years,,,,
"Jinnah Hospital, Lahore",Fanconis Anemia Registry Profile,standard,PARP,haematology,haem,Bone Marrow Trephine,BMT,,blood,text_area,text_area,female,0,150,Years,,,,
"Jinnah Hospital, Lahore",Fanconis Anemia Registry Profile,standard,PARP,haematology,haem,Chromosomal Breakage Analysis,PROMO,,blood,text_area,text_area,female,0,150,Years,,,,
"Jinnah Hospital, Lahore",Fanconis Anemia Registry Profile,standard,PARP,haematology,haem,Diagnosis,PAGNO,,blood,text_area,text_area,female,0,150,Years,,,,
"Jinnah Hospital, Lahore",Fanconis Anemia Registry Profile,standard,PARP,haematology,haem,Data Taken By,PTA T,,blood,text_area,text_area,female,0,150,Years,,,,
"Jinnah Hospital, Lahore",Hemolytic Profile,standard,HMLP,haematology,haem,Hb,HB,g/dl,blood,decimal,decimal,male,0,150,Years,13,16.5,13-16.5,CBC
"Jinnah Hospital, Lahore",Hemolytic Profile,standard,HMLP,haematology,haem,RBC,RBC,x10^/L,blood,decimal,decimal,male,0,150,Years,4.5,6.5,4.5-6.5,CBC
"Jinnah Hospital, Lahore",Hemolytic Profile,standard,HMLP,haematology,haem,HCT,HCT,%,blood,decimal,decimal,male,0,150,Years,38,52,38-52,CBC
"Jinnah Hospital, Lahore",Hemolytic Profile,standard,HMLP,haematology,haem,MCV,MCV,FL,blood,decimal,decimal,male,0,150,Years,77,95,77-95,CBC
"Jinnah Hospital, Lahore",Hemolytic Profile,standard,HMLP,haematology,haem,MCH,MCH,pg,blood,decimal,decimal,male,0,150,Years,27,32,27-32,CBC
"Jinnah Hospital, Lahore",Hemolytic Profile,standard,HMLP,haematology,haem,MCHC,MCHC,g/dl,blood,decimal,decimal,male,0,150,Years,32,36,32-36,CBC
"Jinnah Hospital, Lahore",Hemolytic Profile,standard,HMLP,haematology,haem,WBC,WBC,x10^9/L,blood,decimal,decimal,male,0,150,Years,4,11,4-11,CBC
"Jinnah Hospital, Lahore",Hemolytic Profile,standard,HMLP,haematology,haem,Platelet Count,PLTC,X10^9/L,blood,decimal,decimal,male,0,150,Years,150,400,150-400,CBC
"Jinnah Hospital, Lahore",Hemolytic Profile,standard,HMLP,haematology,haem,Hb A,HBA,%,blood,decimal,decimal,male,0,150,Years,96,100,96.0-100,HPLC
"Jinnah Hospital, Lahore",Hemolytic Profile,standard,HMLP,haematology,haem,Hb A2,HBA2,%,blood,decimal,decimal,male,0,150,Years,1.5,3.5,1.5-3.5,HPLC
"Jinnah Hospital, Lahore",Hemolytic Profile,standard,HMLP,haematology,haem,Hb F,HBF,%,blood,decimal,decimal,male,0,150,Years,,,,HPLC
"Jinnah Hospital, Lahore",Hemolytic Profile,standard,HMLP,haematology,haem,Others,OTHR,%,blood,decimal,decimal,male,0,150,Years,,,,HPLC
"Jinnah Hospital, Lahore",Hemolytic Profile,standard,HMLP,haematology,haem, DAT,DAT,,blood,text_area,text_area,male,0,150,Years,,,,COOMBS TESTS
"Jinnah Hospital, Lahore",Hemolytic Profile,standard,HMLP,haematology,haem,IAT,IAT,,blood,text_area,text_area,male,0,150,Years,,,,COOMBS TESTS
"Jinnah Hospital, Lahore",Hemolytic Profile,standard,HMLP,haematology,haem,Peripheral Smear,PRIPH,,blood,text_area,text_area,male,0,150,Years,,,,
"Jinnah Hospital, Lahore",Hemolytic Profile,standard,HMLP,haematology,haem,Reticulocytes,RTCCT,,blood,text_area,text_area,male,0,150,Years,,,,
"Jinnah Hospital, Lahore",Hemolytic Profile,standard,HMLP,haematology,haem,Hb,HB,g/dl,blood,decimal,decimal,female,0,150,Years,13,16.5,13-16.5,CBC
"Jinnah Hospital, Lahore",Hemolytic Profile,standard,HMLP,haematology,haem,RBC,RBC,x10^/L,blood,decimal,decimal,female,0,150,Years,4.5,6.5,4.5-6.5,CBC
"Jinnah Hospital, Lahore",Hemolytic Profile,standard,HMLP,haematology,haem,HCT,HCT,%,blood,decimal,decimal,female,0,150,Years,38,52,38-52,CBC
"Jinnah Hospital, Lahore",Hemolytic Profile,standard,HMLP,haematology,haem,MCV,MCV,FL,blood,decimal,decimal,female,0,150,Years,77,95,77-95,CBC
"Jinnah Hospital, Lahore",Hemolytic Profile,standard,HMLP,haematology,haem,MCH,MCH,pg,blood,decimal,decimal,female,0,150,Years,27,32,27-32,CBC
"Jinnah Hospital, Lahore",Hemolytic Profile,standard,HMLP,haematology,haem,MCHC,MCHC,g/dl,blood,decimal,decimal,female,0,150,Years,32,36,32-36,CBC
"Jinnah Hospital, Lahore",Hemolytic Profile,standard,HMLP,haematology,haem,WBC,WBC,x10^9/L,blood,decimal,decimal,female,0,150,Years,4,11,4-11,CBC
"Jinnah Hospital, Lahore",Hemolytic Profile,standard,HMLP,haematology,haem,Platelet Count,PLTC,X10^9/L,blood,decimal,decimal,female,0,150,Years,150,400,150-400,CBC
"Jinnah Hospital, Lahore",Hemolytic Profile,standard,HMLP,haematology,haem,Hb A,HBA,%,blood,decimal,decimal,female,0,150,Years,96,100,96.0-100,HPLC
"Jinnah Hospital, Lahore",Hemolytic Profile,standard,HMLP,haematology,haem,Hb A2,HBA2,%,blood,decimal,decimal,female,0,150,Years,1.5,3.5,1.5-3.5,HPLC
"Jinnah Hospital, Lahore",Hemolytic Profile,standard,HMLP,haematology,haem,Hb F,HBF,%,blood,decimal,decimal,female,0,150,Years,,,,HPLC
"Jinnah Hospital, Lahore",Hemolytic Profile,standard,HMLP,haematology,haem,Others,OTHR,%,blood,decimal,decimal,female,0,150,Years,,,,HPLC
"Jinnah Hospital, Lahore",Hemolytic Profile,standard,HMLP,haematology,haem, DAT,DAT,,blood,text_area,text_area,female,0,150,Years,,,,COOMBS TESTS
"Jinnah Hospital, Lahore",Hemolytic Profile,standard,HMLP,haematology,haem,IAT,IAT,,blood,text_area,text_area,female,0,150,Years,,,,COOMBS TESTS
"Jinnah Hospital, Lahore",Hemolytic Profile,standard,HMLP,haematology,haem,Peripheral Smear,PRIPH,,blood,text_area,text_area,female,0,150,Years,,,,
"Jinnah Hospital, Lahore",Hemolytic Profile,standard,HMLP,haematology,haem,Reticulocytes,RTCCT,,blood,text_area,text_area,female,0,150,Years,,,,
"Jinnah Hospital, Lahore",Bone Marrow Biopsy Profile,standard,BMBP,haematology,haem,Hb,HB,g/dL,blood,decimal,decimal,male,0,150,Years,13,16.5,13-16.5,CBC
"Jinnah Hospital, Lahore",Bone Marrow Biopsy Profile,standard,BMBP,haematology,haem,WBC,WBC,X10^9/1,blood,decimal,decimal,male,0,150,Years,4,11,43201,CBC
"Jinnah Hospital, Lahore",Bone Marrow Biopsy Profile,standard,BMBP,haematology,haem,RBC,RBC,X10^12/1,blood,decimal,decimal,male,0,150,Years,4.5,6.5,4.5-6.5,CBC
"Jinnah Hospital, Lahore",Bone Marrow Biopsy Profile,standard,BMBP,haematology,haem,Platelet Count,PLTC,X10^9/L,blood,decimal,decimal,male,0,150,Years,150,400,150-400,CBC
"Jinnah Hospital, Lahore",Bone Marrow Biopsy Profile,standard,BMBP,haematology,haem,Peripheral Smear,PRIPH,,blood,text_area,text_area,male,0,150,Years,,,,
"Jinnah Hospital, Lahore",Bone Marrow Biopsy Profile,standard,BMBP,haematology,haem,Bone Marrow Aspirate,BMA,,blood,text_area,text_area,male,0,150,Years,,,,
"Jinnah Hospital, Lahore",Bone Marrow Biopsy Profile,standard,BMBP,haematology,haem,Erythropoesis,ERTHP,,blood,text_area,text_area,male,0,150,Years,,,,
"Jinnah Hospital, Lahore",Bone Marrow Biopsy Profile,standard,BMBP,haematology,haem,Leucoposis,LUCP,,blood,text_area,text_area,male,0,150,Years,,,,
"Jinnah Hospital, Lahore",Bone Marrow Biopsy Profile,standard,BMBP,haematology,haem,plasma cell,PLSMC,,blood,text_area,text_area,male,0,150,Years,,,,Megakaryocytes
"Jinnah Hospital, Lahore",Bone Marrow Biopsy Profile,standard,BMBP,haematology,haem,iron staining,IRNSTN,,blood,text_area,text_area,male,0,150,Years,,,,
"Jinnah Hospital, Lahore",Bone Marrow Biopsy Profile,standard,BMBP,haematology,haem,special staining,SPCLST,,blood,text_area,text_area,male,0,150,Years,,,,
"Jinnah Hospital, Lahore",Bone Marrow Biopsy Profile,standard,BMBP,haematology,haem,bone marrow imprint,BMI,,blood,text_area,text_area,male,0,150,Years,,,,
"Jinnah Hospital, Lahore",Bone Marrow Biopsy Profile,standard,BMBP,haematology,haem,extra needulay cell,ENC,,blood,text_area,text_area,male,0,150,Years,,,,
"Jinnah Hospital, Lahore",Bone Marrow Biopsy Profile,standard,BMBP,haematology,haem,Bone Marrow Trephine,BMT,,blood,text_area,text_area,male,0,150,Years,,,,
"Jinnah Hospital, Lahore",Bone Marrow Biopsy Profile,standard,BMBP,haematology,haem,conclusion,CNCL,,blood,text_area,text_area,male,0,150,Years,,,,
"Jinnah Hospital, Lahore",Bone Marrow Biopsy Profile,standard,BMBP,haematology,haem,opinion,OPNN,,blood,text_area,text_area,male,0,150,Years,,,,
"Jinnah Hospital, Lahore",Bone Marrow Biopsy Profile,standard,BMBP,haematology,haem,Hb,HB,g/dL,blood,decimal,decimal,female,0,150,Years,13,16.5,13-16.5,CBC
"Jinnah Hospital, Lahore",Bone Marrow Biopsy Profile,standard,BMBP,haematology,haem,WBC,WBC,X10^9/1,blood,decimal,decimal,female,0,150,Years,4,11,43201,CBC
"Jinnah Hospital, Lahore",Bone Marrow Biopsy Profile,standard,BMBP,haematology,haem,RBC,RBC,X10^12/1,blood,decimal,decimal,female,0,150,Years,4.5,6.5,4.5-6.5,CBC
"Jinnah Hospital, Lahore",Bone Marrow Biopsy Profile,standard,BMBP,haematology,haem,Platelet Count,PLTC,X10^9/L,blood,decimal,decimal,female,0,150,Years,150,400,150-400,CBC
"Jinnah Hospital, Lahore",Bone Marrow Biopsy Profile,standard,BMBP,haematology,haem,Peripheral Smear,PRIPH,,blood,text_area,text_area,female,0,150,Years,,,,
"Jinnah Hospital, Lahore",Bone Marrow Biopsy Profile,standard,BMBP,haematology,haem,Bone Marrow Aspirate,BMA,,blood,text_area,text_area,female,0,150,Years,,,,
"Jinnah Hospital, Lahore",Bone Marrow Biopsy Profile,standard,BMBP,haematology,haem,Erythropoesis,ERTHP,,blood,text_area,text_area,female,0,150,Years,,,,
"Jinnah Hospital, Lahore",Bone Marrow Biopsy Profile,standard,BMBP,haematology,haem,Leucoposis,LUCP,,blood,text_area,text_area,female,0,150,Years,,,,
"Jinnah Hospital, Lahore",Bone Marrow Biopsy Profile,standard,BMBP,haematology,haem,plasma cell,PLSMC,,blood,text_area,text_area,female,0,150,Years,,,,
"Jinnah Hospital, Lahore",Bone Marrow Biopsy Profile,standard,BMBP,haematology,haem,iron staining,IRNSTN,,blood,text_area,text_area,female,0,150,Years,,,,
"Jinnah Hospital, Lahore",Bone Marrow Biopsy Profile,standard,BMBP,haematology,haem,special staining,SPCLST,,blood,text_area,text_area,female,0,150,Years,,,,
"Jinnah Hospital, Lahore",Bone Marrow Biopsy Profile,standard,BMBP,haematology,haem,bone marrow imprint,BMI,,blood,text_area,text_area,female,0,150,Years,,,,
"Jinnah Hospital, Lahore",Bone Marrow Biopsy Profile,standard,BMBP,haematology,haem,extra needulay cell,ENC,,blood,text_area,text_area,female,0,150,Years,,,,
"Jinnah Hospital, Lahore",Bone Marrow Biopsy Profile,standard,BMBP,haematology,haem,Bone Marrow Trephine,BMT,,blood,text_area,text_area,female,0,150,Years,,,,
"Jinnah Hospital, Lahore",Bone Marrow Biopsy Profile,standard,BMBP,haematology,haem,conclusion,CNCL,,blood,text_area,text_area,female,0,150,Years,,,,
"Jinnah Hospital, Lahore",Bone Marrow Biopsy Profile,standard,BMBP,haematology,haem,opinion,OPNN,,blood,text_area,text_area,female,0,150,Years,,,,
"Jinnah Hospital, Lahore",CSF Profile,standard,CSFP,haematology,haem,Appearance,APRNC,,blood,string,string,male,0,150,Years,"Clear,Not Clear","Clear,Not Clear","Clear,Not Clear",
"Jinnah Hospital, Lahore",CSF Profile,standard,CSFP,haematology,haem,Quantity,QTY,ml,blood,deicmal,deicmal,male,0,150,Years,,,,
"Jinnah Hospital, Lahore",CSF Profile,standard,CSFP,haematology,haem,WBC,WBC,/mmx10^3,blood,deicmal,deicmal,male,0,150,Years,,,,
"Jinnah Hospital, Lahore",CSF Profile,standard,CSFP,haematology,haem,RBC,RBC,/mmx10^3,blood,deicmal,deicmal,male,0,150,Years,,,,
"Jinnah Hospital, Lahore",CSF Profile,standard,CSFP,haematology,haem,DLC,DLC,,blood,deicmal,deicmal,male,0,150,Years,,,,
"Jinnah Hospital, Lahore",CSF Profile,standard,CSFP,haematology,haem,Neutrophils,NTPH,%,blood,deicmal,deicmal,male,0,150,Years,,,,
"Jinnah Hospital, Lahore",CSF Profile,standard,CSFP,haematology,haem,Lymphocytes,LPCT,%,blood,deicmal,deicmal,male,0,150,Years,,,,
"Jinnah Hospital, Lahore",CSF Profile,standard,CSFP,haematology,haem,Biochemistry,POCHE,mg/dl,blood,deicmal,deicmal,male,0,150,Years,,,,
"Jinnah Hospital, Lahore",CSF Profile,standard,CSFP,haematology,haem,sugar,SUGAR,mg/dl,blood,deicmal,deicmal,male,0,150,Years,,,,
"Jinnah Hospital, Lahore",CSF Profile,standard,CSFP,haematology,haem,protein,POTEI,mg/dl,blood,deicmal,deicmal,male,0,150,Years,,,,
"Jinnah Hospital, Lahore",CSF Profile,standard,CSFP,haematology,haem,gram staining,GRMS,,blood,deicmal,deicmal,male,0,150,Years,,,,
"Jinnah Hospital, Lahore",CSF Profile,standard,CSFP,haematology,haem,ZN staining,ZNSTN,,blood,deicmal,deicmal,male,0,150,Years,,,,
"Jinnah Hospital, Lahore",CSF Profile,standard,CSFP,haematology,haem,Appearance,APRNC,,blood,string,string,female,0,150,Years,,,,
"Jinnah Hospital, Lahore",CSF Profile,standard,CSFP,haematology,haem,Quantity,QTY,ml,blood,deicmal,deicmal,female,0,150,Years,,,,
"Jinnah Hospital, Lahore",CSF Profile,standard,CSFP,haematology,haem,WBC,WBC,/mmx10^3,blood,deicmal,deicmal,female,0,150,Years,,,,
"Jinnah Hospital, Lahore",CSF Profile,standard,CSFP,haematology,haem,RBC,RBC,/mmx10^3,blood,deicmal,deicmal,female,0,150,Years,,,,
"Jinnah Hospital, Lahore",CSF Profile,standard,CSFP,haematology,haem,DLC,DLC,,blood,deicmal,deicmal,female,0,150,Years,,,,
"Jinnah Hospital, Lahore",CSF Profile,standard,CSFP,haematology,haem,Neutrophils,NTPH,%,blood,deicmal,deicmal,female,0,150,Years,,,,
"Jinnah Hospital, Lahore",CSF Profile,standard,CSFP,haematology,haem,Lymphocytes,LPCT,%,blood,deicmal,deicmal,female,0,150,Years,,,,
"Jinnah Hospital, Lahore",CSF Profile,standard,CSFP,haematology,haem,Biochemistry,POCHE,mg/dl,blood,deicmal,deicmal,female,0,150,Years,,,,
"Jinnah Hospital, Lahore",CSF Profile,standard,CSFP,haematology,haem,sugar,SUGAR,mg/dl,blood,deicmal,deicmal,female,0,150,Years,,,,
"Jinnah Hospital, Lahore",CSF Profile,standard,CSFP,haematology,haem,protein,POTEI,mg/dl,blood,deicmal,deicmal,female,0,150,Years,,,,
"Jinnah Hospital, Lahore",CSF Profile,standard,CSFP,haematology,haem,gram staining,GRMS,,blood,deicmal,deicmal,female,0,150,Years,,,,
"Jinnah Hospital, Lahore",CSF Profile,standard,CSFP,haematology,haem,ZN staining,ZNSTN,,blood,deicmal,deicmal,female,0,150,Years,,,,
"Jinnah Hospital, Lahore",HPLC Profile,standard,HPLCP,haematology,haem,History,HSTRY,,blood,text_area,text_area,male,0,150,Years,,,,
"Jinnah Hospital, Lahore",HPLC Profile,standard,HPLCP,haematology,haem,RBC,RBC,x10^12/ul,blood,decimal,decimal,male,0,150,Years,4.5,6.5,4.5-6.5,CBC
"Jinnah Hospital, Lahore",HPLC Profile,standard,HPLCP,haematology,haem,Hb,HB,g/dl,blood,decimal,decimal,male,0,150,Years,13,16.5,13-6.5,CBC
"Jinnah Hospital, Lahore",HPLC Profile,standard,HPLCP,haematology,haem,HCT,HCT,%,blood,decimal,decimal,male,0,150,Years,38,52,38-52,CBC
"Jinnah Hospital, Lahore",HPLC Profile,standard,HPLCP,haematology,haem,MCV,MCV,fl,blood,decimal,decimal,male,0,150,Years,77,95,77-95,CBC
"Jinnah Hospital, Lahore",HPLC Profile,standard,HPLCP,haematology,haem,MCH,MCH,pg,blood,decimal,decimal,male,0,150,Years,27,32,27-32,CBC
"Jinnah Hospital, Lahore",HPLC Profile,standard,HPLCP,haematology,haem,MCHC,MCHC,g/dl,blood,decimal,decimal,male,0,150,Years,32,36,32-36,CBC
"Jinnah Hospital, Lahore",HPLC Profile,standard,HPLCP,haematology,haem,Platelet Count,PLTC,x10^9/ul,blood,decimal,decimal,male,0,150,Years,150,400,150-400,CBC
"Jinnah Hospital, Lahore",HPLC Profile,standard,HPLCP,haematology,haem,WBC,WBC,x10^9/ul,blood,decimal,decimal,male,0,150,Years,4,11,4-11,CBC
"Jinnah Hospital, Lahore",HPLC Profile,standard,HPLCP,haematology,haem,Neutrophils,NTPH,%,blood,decimal,decimal,male,0,150,Years,40,75,40-75,CBC
"Jinnah Hospital, Lahore",HPLC Profile,standard,HPLCP,haematology,haem,Lymphocytes,LPCT,%,blood,decimal,decimal,male,0,150,Years,20,50,20-50,CBC
"Jinnah Hospital, Lahore",HPLC Profile,standard,HPLCP,haematology,haem,Monocytes,MNCT,%,blood,decimal,decimal,male,0,150,Years,2,10,2-10,CBC
"Jinnah Hospital, Lahore",HPLC Profile,standard,HPLCP,haematology,haem,Eosinophills,ESPH,%,blood,decimal,decimal,male,0,150,Years,1,6,1-6,CBC
"Jinnah Hospital, Lahore",HPLC Profile,standard,HPLCP,haematology,haem,Reticulocytes,RTCCT,%,blood,decimal,decimal,male,0,150,Years,,,,CBC
"Jinnah Hospital, Lahore",HPLC Profile,standard,HPLCP,haematology,haem,Peripheral Smear,PRIPH,,blood,text_area,text_area,male,0,150,Years,,,,
"Jinnah Hospital, Lahore",HPLC Profile,standard,HPLCP,haematology,haem,Hb A ,HBA,%,blood,decimal,decimal,male,0,150,Years,96,100,96.0-100,
"Jinnah Hospital, Lahore",HPLC Profile,standard,HPLCP,haematology,haem,Hb A2,HBA2,%,blood,decimal,decimal,male,0,150,Years,1.5,3.5,1.5-3.5,
"Jinnah Hospital, Lahore",HPLC Profile,standard,HPLCP,haematology,haem,Hb F,HBF,%,blood,decimal,decimal,male,0,150,Years,0,1,0-1,
"Jinnah Hospital, Lahore",HPLC Profile,standard,HPLCP,haematology,haem,Hb S,HBS,%,blood,decimal,decimal,male,0,150,Years,,,,
"Jinnah Hospital, Lahore",HPLC Profile,standard,HPLCP,haematology,haem,"Other Hb (Hb D, Hb C)",OTHRHB,%,blood,decimal,decimal,male,0,150,Years,,,,
"Jinnah Hospital, Lahore",HPLC Profile,standard,HPLCP,haematology,haem,opinion,OPNN,,blood,text_area,text_area,male,0,150,Years,,,,
"Jinnah Hospital, Lahore",HPLC Profile,standard,HPLCP,haematology,haem,Advise,ADVS,,blood,text_area,text_area,male,0,150,Years,,,,
"Jinnah Hospital, Lahore",HPLC Profile,standard,HPLCP,haematology,haem,History,HSTRY,,blood,text_area,text_area,female,0,150,Years,,,,
"Jinnah Hospital, Lahore",HPLC Profile,standard,HPLCP,haematology,haem,RBC,RBC,x10^12/ul,blood,decimal,decimal,female,0,150,Years,4.5,6.5,4.5-6.5,CBC
"Jinnah Hospital, Lahore",HPLC Profile,standard,HPLCP,haematology,haem,Hb,HB,g/dl,blood,decimal,decimal,female,0,150,Years,13,16.5,13-6.5,CBC
"Jinnah Hospital, Lahore",HPLC Profile,standard,HPLCP,haematology,haem,HCT,HCT,%,blood,decimal,decimal,female,0,150,Years,38,52,38-52,CBC
"Jinnah Hospital, Lahore",HPLC Profile,standard,HPLCP,haematology,haem,MCV,MCV,fl,blood,decimal,decimal,female,0,150,Years,77,95,77-95,CBC
"Jinnah Hospital, Lahore",HPLC Profile,standard,HPLCP,haematology,haem,MCH,MCH,pg,blood,decimal,decimal,female,0,150,Years,27,32,27-32,CBC
"Jinnah Hospital, Lahore",HPLC Profile,standard,HPLCP,haematology,haem,MCHC,MCHC,g/dl,blood,decimal,decimal,female,0,150,Years,32,36,32-36,CBC
"Jinnah Hospital, Lahore",HPLC Profile,standard,HPLCP,haematology,haem,Platelet Count,PLTC,x10^9/ul,blood,decimal,decimal,female,0,150,Years,150,400,150-400,CBC
"Jinnah Hospital, Lahore",HPLC Profile,standard,HPLCP,haematology,haem,WBC,WBC,x10^9/ul,blood,decimal,decimal,female,0,150,Years,4,11,4-11,CBC
"Jinnah Hospital, Lahore",HPLC Profile,standard,HPLCP,haematology,haem,Neutrophils,NTPH,%,blood,decimal,decimal,female,0,150,Years,40,75,40-75,CBC
"Jinnah Hospital, Lahore",HPLC Profile,standard,HPLCP,haematology,haem,Lymphocytes,LPCT,%,blood,decimal,decimal,female,0,150,Years,20,50,20-50,CBC
"Jinnah Hospital, Lahore",HPLC Profile,standard,HPLCP,haematology,haem,Monocytes,MNCT,%,blood,decimal,decimal,female,0,150,Years,2,10,2-10,CBC
"Jinnah Hospital, Lahore",HPLC Profile,standard,HPLCP,haematology,haem,Eosinophills,ESPH,%,blood,decimal,decimal,female,0,150,Years,1,6,1-6,CBC
"Jinnah Hospital, Lahore",HPLC Profile,standard,HPLCP,haematology,haem,Reticulocytes,RTCCT,%,blood,decimal,decimal,female,0,150,Years,,,,CBC
"Jinnah Hospital, Lahore",HPLC Profile,standard,HPLCP,haematology,haem,Peripheral Smear,PRIPH,,blood,text_area,text_area,female,0,150,Years,,,,
"Jinnah Hospital, Lahore",HPLC Profile,standard,HPLCP,haematology,haem,Hb A ,HBA,%,blood,decimal,decimal,female,0,150,Years,96,100,96.0-100,
"Jinnah Hospital, Lahore",HPLC Profile,standard,HPLCP,haematology,haem,Hb A2,HBA2,%,blood,decimal,decimal,female,0,150,Years,1.5,3.5,1.5-3.5,
"Jinnah Hospital, Lahore",HPLC Profile,standard,HPLCP,haematology,haem,Hb F,HBF,%,blood,decimal,decimal,female,0,150,Years,0,1,0-1,
"Jinnah Hospital, Lahore",HPLC Profile,standard,HPLCP,haematology,haem,Hb S,HBS,%,blood,decimal,decimal,female,0,150,Years,,,,
"Jinnah Hospital, Lahore",HPLC Profile,standard,HPLCP,haematology,haem,"Other Hb (Hb D, Hb C)",OTHRHB,%,blood,decimal,decimal,female,0,150,Years,,,,
"Jinnah Hospital, Lahore",HPLC Profile,standard,HPLCP,haematology,haem,opinion,OPNN,,blood,text_area,text_area,female,0,150,Years,,,,
"Jinnah Hospital, Lahore",HPLC Profile,standard,HPLCP,haematology,haem,Advise,ADVS,,blood,text_area,text_area,female,0,150,Years,,,,
"Jinnah Hospital, Lahore",Factor Assay Profile,standard,FAP,haematology,haem,Patient Plasma+Normal Plasma,PPNP,,blood,text_area,text_area,male,0,150,Years,,,,Mixing Study
"Jinnah Hospital, Lahore",Factor Assay Profile,standard,FAP,haematology,haem,Patient Plasma +Absorb Plasma,PPAP,,blood,text_area,text_area,male,0,150,Years,,,,
"Jinnah Hospital, Lahore",Factor Assay Profile,standard,FAP,haematology,haem,Patient Plasma+ Aged Plasma,PPAGP,,blood,text_area,text_area,male,0,150,Years,,,,
"Jinnah Hospital, Lahore",Factor Assay Profile,standard,FAP,haematology,haem,PT,PT,seconds,blood,text_area,text_area,male,0,150,Years,11,14,11-14,
"Jinnah Hospital, Lahore",Factor Assay Profile,standard,FAP,haematology,haem,APTT,APTT,seconds,blood,text_area,text_area,male,0,150,Years,31,36,31-36 ,
"Jinnah Hospital, Lahore",Factor Assay Profile,standard,FAP,haematology,haem,INR,INR,seconds,blood,text_area,text_area,male,0,150,Years,,,,
"Jinnah Hospital, Lahore",Factor Assay Profile,standard,FAP,haematology,haem,Thrombin Time,TBT,seconds,blood,text_area,text_area,male,0,150,Years,14,20,14-20,
"Jinnah Hospital, Lahore",Factor Assay Profile,standard,FAP,haematology,haem,Fibrinogen TiMe,FGT,g/I,blood,text_area,text_area,male,0,150,Years,1.95,3.05,1.95-3.05,
"Jinnah Hospital, Lahore",Factor Assay Profile,standard,FAP,haematology,haem,factor V,FCTR5,UI/ml,blood,text_area,text_area,male,0,150,Years,72,96,72-96,
"Jinnah Hospital, Lahore",Factor Assay Profile,standard,FAP,haematology,haem,FACTOR VII,FCTR7,UI/mi,blood,text_area,text_area,male,0,150,Years,77,113,77-113,
"Jinnah Hospital, Lahore",Factor Assay Profile,standard,FAP,haematology,haem,FACTOR VIII,FCTR8,%,blood,text_area,text_area,male,0,150,Years,77,107,77-107,
"Jinnah Hospital, Lahore",Factor Assay Profile,standard,FAP,haematology,haem,Factor IX,FCTR9,%,blood,text_area,text_area,male,0,150,Years,93,131,93-131,
"Jinnah Hospital, Lahore",Factor Assay Profile,standard,FAP,haematology,haem,Factor X,FCTR10,Ui/ml,blood,text_area,text_area,male,0,150,Years,74,100,74-100,
"Jinnah Hospital, Lahore",Factor Assay Profile,standard,FAP,haematology,haem,protein C,PRTNC,%,blood,text_area,text_area,male,0,150,Years,83,113,83-113,
"Jinnah Hospital, Lahore",Factor Assay Profile,standard,FAP,haematology,haem,protein s,PRTCS,%,blood,text_area,text_area,male,0,150,Years,70,110,70-110,
"Jinnah Hospital, Lahore",Factor Assay Profile,standard,FAP,haematology,haem,AT III,AT3,%,blood,text_area,text_area,male,0,150,Years,76,102,76-102,
"Jinnah Hospital, Lahore",Factor Assay Profile,standard,FAP,haematology,haem,Factor VWF,FCTRVWF,%,blood,text_area,text_area,male,0,150,Years,74,94,74-94,
"Jinnah Hospital, Lahore",Factor Assay Profile,standard,FAP,haematology,haem,FaCTOR XI,FCTR11,%,blood,text_area,text_area,male,0,150,Years,79,109,79-109,
"Jinnah Hospital, Lahore",Factor Assay Profile,standard,FAP,haematology,haem,Factor XII,FCTR12,%,blood,text_area,text_area,male,0,150,Years,80,110,80-110,
"Jinnah Hospital, Lahore",Factor Assay Profile,standard,FAP,haematology,haem,Factor XIII,FCTR13,%,blood,text_area,text_area,male,0,150,Years,50,150,50-150,
"Jinnah Hospital, Lahore",Factor Assay Profile,standard,FAP,haematology,haem,INHIBITORS SCREENING,INBTS,,blood,text_area,text_area,male,0,150,Years,,,,
"Jinnah Hospital, Lahore",Factor Assay Profile,standard,FAP,haematology,haem,conclusion,CNCL,,blood,text_area,text_area,male,0,150,Years,,,,
"Jinnah Hospital, Lahore",Factor Assay Profile,standard,FAP,haematology,haem,opinion,OPNN,,blood,text_area,text_area,male,0,150,Years,,,,
"Jinnah Hospital, Lahore",Factor Assay Profile,standard,FAP,haematology,haem,Patient Plasma+Normal Plasma,PPNP,,blood,text_area,text_area,female,0,150,Years,,,,Mixing Study
"Jinnah Hospital, Lahore",Factor Assay Profile,standard,FAP,haematology,haem,Patient Plasma +Absorb Plasma,PPAP,,blood,text_area,text_area,female,0,150,Years,,,,
"Jinnah Hospital, Lahore",Factor Assay Profile,standard,FAP,haematology,haem,Patient Plasma+ Aged Plasma,PPAGP,,blood,text_area,text_area,female,0,150,Years,,,,
"Jinnah Hospital, Lahore",Factor Assay Profile,standard,FAP,haematology,haem,PT,PT,seconds,blood,text_area,text_area,female,0,150,Years,11,14,11-14,
"Jinnah Hospital, Lahore",Factor Assay Profile,standard,FAP,haematology,haem,APTT,APTT,seconds,blood,text_area,text_area,female,0,150,Years,31,36,31-36 ,
"Jinnah Hospital, Lahore",Factor Assay Profile,standard,FAP,haematology,haem,INR,INR,seconds,blood,text_area,text_area,female,0,150,Years,,,,
"Jinnah Hospital, Lahore",Factor Assay Profile,standard,FAP,haematology,haem,Thrombin Time,TBT,seconds,blood,text_area,text_area,female,0,150,Years,14,20,14-20,
"Jinnah Hospital, Lahore",Factor Assay Profile,standard,FAP,haematology,haem,Fibrinogen TiMe,FGT,g/I,blood,text_area,text_area,female,0,150,Years,1.95,3.05,1.95-3.05,
"Jinnah Hospital, Lahore",Factor Assay Profile,standard,FAP,haematology,haem,factor V,FCTR5,UI/ml,blood,text_area,text_area,female,0,150,Years,72,96,72-96,
"Jinnah Hospital, Lahore",Factor Assay Profile,standard,FAP,haematology,haem,FACTOR VII,FCTR7,UI/mi,blood,text_area,text_area,female,0,150,Years,77,113,77-113,
"Jinnah Hospital, Lahore",Factor Assay Profile,standard,FAP,haematology,haem,FACTOR VIII,FCTR8,%,blood,text_area,text_area,female,0,150,Years,77,107,77-107,
"Jinnah Hospital, Lahore",Factor Assay Profile,standard,FAP,haematology,haem,Factor IX,FCTR9,%,blood,text_area,text_area,female,0,150,Years,93,131,93-131,
"Jinnah Hospital, Lahore",Factor Assay Profile,standard,FAP,haematology,haem,Factor X,FCTR10,Ui/ml,blood,text_area,text_area,female,0,150,Years,74,100,74-100,
"Jinnah Hospital, Lahore",Factor Assay Profile,standard,FAP,haematology,haem,protein C,PRTNC,%,blood,text_area,text_area,female,0,150,Years,83,113,83-113,
"Jinnah Hospital, Lahore",Factor Assay Profile,standard,FAP,haematology,haem,protein s,PRTCS,%,blood,text_area,text_area,female,0,150,Years,70,110,70-110,
"Jinnah Hospital, Lahore",Factor Assay Profile,standard,FAP,haematology,haem,AT III,AT3,%,blood,text_area,text_area,female,0,150,Years,76,102,76-102,
"Jinnah Hospital, Lahore",Factor Assay Profile,standard,FAP,haematology,haem,Factor VWF,FCTRVWF,%,blood,text_area,text_area,female,0,150,Years,74,94,74-94,
"Jinnah Hospital, Lahore",Factor Assay Profile,standard,FAP,haematology,haem,FaCTOR XI,FCTR11,%,blood,text_area,text_area,female,0,150,Years,79,109,79-109,
"Jinnah Hospital, Lahore",Factor Assay Profile,standard,FAP,haematology,haem,Factor XII,FCTR12,%,blood,text_area,text_area,female,0,150,Years,80,110,80-110,
"Jinnah Hospital, Lahore",Factor Assay Profile,standard,FAP,haematology,haem,Factor XIII,FCTR13,%,blood,text_area,text_area,female,0,150,Years,50,150,50-150,
"Jinnah Hospital, Lahore",Factor Assay Profile,standard,FAP,haematology,haem,INHIBITORS SCREENING,INBTS,,blood,text_area,text_area,female,0,150,Years,,,,
"Jinnah Hospital, Lahore",Factor Assay Profile,standard,FAP,haematology,haem,conclusion,CNCL,,blood,text_area,text_area,female,0,150,Years,,,,
"Jinnah Hospital, Lahore",Factor Assay Profile,standard,FAP,haematology,haem,opinion,OPNN,,blood,text_area,text_area,female,0,150,Years,,,,
"Jinnah Hospital, Lahore",S Folate,SFLT,SFP,haematology,haem,S Folate,SFLT,ng/ml,blood,decimal,decimal,male,0,1,Years,7.2,22.4,7.2-22.4,
"Jinnah Hospital, Lahore",S Folate,SFLT,SFP,haematology,haem,S Folate,SFLT,ng/ml,blood,decimal,decimal,female,0,1,Years,6.3,22.7,6.3-22.7,
"Jinnah Hospital, Lahore",S Folate,SFLT,SFP,haematology,haem,S Folate,SFLT,ng/ml,blood,decimal,decimal,male,2,3,Years,2.5,15,2.5-15,
"Jinnah Hospital, Lahore",S Folate,SFLT,SFP,haematology,haem,S Folate,SFLT,ng/ml,blood,decimal,decimal,female,2,3,Years,1.72,15.7,1.72-15.7,
"Jinnah Hospital, Lahore",S Folate,SFLT,SFP,haematology,haem,S Folate,SFLT,ng/ml,blood,decimal,decimal,male,4,6,Years,0.5,12.9,0.5-12.9,
"Jinnah Hospital, Lahore",S Folate,SFLT,SFP,haematology,haem,S Folate,SFLT,ng/ml,blood,decimal,decimal,female,4,6,Years,2.7,14.1,2.7-14.1,
"Jinnah Hospital, Lahore",S Folate,SFLT,SFP,haematology,haem,S Folate,SFLT,ng/ml,blood,decimal,decimal,male,7,9,Years,2.29,11.9,2.29-11.9,
"Jinnah Hospital, Lahore",S Folate,SFLT,SFP,haematology,haem,S Folate,SFLT,ng/ml,blood,decimal,decimal,female,7,9,Years,2.4,13.4,2.4-13.4,
"Jinnah Hospital, Lahore",S Folate,SFLT,SFP,haematology,haem,S Folate,SFLT,ng/ml,blood,decimal,decimal,male,10,12,Years,1.5,10.8,1.5-10.8,
"Jinnah Hospital, Lahore",S Folate,SFLT,SFP,haematology,haem,S Folate,SFLT,ng/ml,blood,decimal,decimal,female,10,12,Years,1.02,10.2,1.02-10.2,
"Jinnah Hospital, Lahore",S Folate,SFLT,SFP,haematology,haem,S Folate,SFLT,ng/ml,blood,decimal,decimal,male,13,18,Years,1.2,8.78,1.2-8.78,
"Jinnah Hospital, Lahore",S Folate,SFLT,SFP,haematology,haem,S Folate,SFLT,ng/ml,blood,decimal,decimal,female,13,18,Years,1.2,7.2,1.2-7.2,
"Jinnah Hospital, Lahore",S.Cobalamin,SCBLMN,SCBLM,haematology,haem,S.Cobalamin,SCBLM,pg/ml,blood,decimal,decimal,male,0,1,Years,293,1207,293-1207,
"Jinnah Hospital, Lahore",S.Cobalamin,SCBLMN,SCBLM,haematology,haem,S.Cobalamin,SCBLM,pg/ml,blood,decimal,decimal,female,0,1,Years,228,1513,228-1513,
"Jinnah Hospital, Lahore",S.Cobalamin,SCBLMN,SCBLM,haematology,haem,S.Cobalamin,SCBLM,pg/ml,blood,decimal,decimal,male,2,3,Years,264,1215,264-1215,
"Jinnah Hospital, Lahore",S.Cobalamin,SCBLMN,SCBLM,haematology,haem,S.Cobalamin,SCBLM,pg/ml,blood,decimal,decimal,female,2,3,Years,416,1208,416-1208,
"Jinnah Hospital, Lahore",S.Cobalamin,SCBLMN,SCBLM,haematology,haem,S.Cobalamin,SCBLM,pg/ml,blood,decimal,decimal,male,4,6,Years,245,1077,245-1077,
"Jinnah Hospital, Lahore",S.Cobalamin,SCBLMN,SCBLM,haematology,haem,S.Cobalamin,SCBLM,pg/ml,blood,decimal,decimal,female,4,6,Years,313,1406,313-1406,
"Jinnah Hospital, Lahore",S.Cobalamin,SCBLMN,SCBLM,haematology,haem,S.Cobalamin,SCBLM,pg/ml,blood,decimal,decimal,male,7,9,Years,271,1169,271-1169,
"Jinnah Hospital, Lahore",S.Cobalamin,SCBLMN,SCBLM,haematology,haem,S.Cobalamin,SCBLM,pg/ml,blood,decimal,decimal,female,7,9,Years,246,1173,246-1173,
"Jinnah Hospital, Lahore",S.Cobalamin,SCBLMN,SCBLM,haematology,haem,S.Cobalamin,SCBLM,pg/ml,blood,decimal,decimal,male,10,12,Years,183,1088,183-1088,
"Jinnah Hospital, Lahore",S.Cobalamin,SCBLMN,SCBLM,haematology,haem,S.Cobalamin,SCBLM,pg/ml,blood,decimal,decimal,female,10,12,Years,196,1019,196-1019,
"Jinnah Hospital, Lahore",S.Cobalamin,SCBLMN,SCBLM,haematology,haem,S.Cobalamin,SCBLM,pg/ml,blood,decimal,decimal,male,13,18,Years,214,864,214-864,
"Jinnah Hospital, Lahore",S.Cobalamin,SCBLMN,SCBLM,haematology,haem,S.Cobalamin,SCBLM,pg/ml,blood,decimal,decimal,female,13,18,Years,182,820,182-820,
