hospital,profile_name,report_type,profile_code,lab_section,lab_section_code,parameter,parameter_code,uom,specimen,result_type1,result_type2,gender,age_start,age_end,date_unit,start_range,end_range,range_title,heading
"Punjab Hospital Foundation, Lahore",Glucose Test,standard,GLT,CHEMISTRY,CHEM,Glucose Fasting (BSF),BSF,mg/dl,blood,decimal,decimal,male,0,150,Years,60,110,60-110,
"Punjab Hospital Foundation, Lahore",Glucose Test,standard,GLT,CHEMISTRY,CHEM,Glucose Fasting (BSF),BSF,mg/dl,blood,decimal,decimal,female,0,150,Years,60,110,60-110,
"Punjab Hospital Foundation, Lahore",Glucose Test,standard,GLT,CHEMISTRY,CHEM,Glucose Random (BSR),BSR,mg/dl,blood,decimal,decimal,male,0,150,Years,79,160,79-160,
"Punjab Hospital Foundation, Lahore",Glucose Test,standard,GLT,CHEMISTRY,CHEM,Glucose Random (BSR),BSR,mg/dl,blood,decimal,decimal,female,0,150,Years,79,160,79-160,
"Punjab Hospital Foundation, Lahore",Hepatitis by ICT,standard,HPTC,CHEMISTRY,CHEM,Anti-HCV,AHCV,blood,string,string,male,0,150,Years,"Negative,Positive","Negative,Positive","Negative,Positive",,
"Punjab Hospital Foundation, Lahore",Hepatitis by ICT,standard,HPTC,CHEMISTRY,CHEM,Anti-HCV,AHCV,blood,string,string,female,0,150,Years,"Negative,Positive","Negative,Positive","Negative,Positive",,
