hospital,profile_name,report_type,profile_code,lab_section,lab_section_code,parameter,parameter_code,uom,specimen,result_type1,result_type2,gender,age_start,age_end,date_unit,start_range,end_range,range_title,heading
"Govt. Sardar Begum Hospital, Sialkot",CBC Profile,standard,CBCP,haematology,haem,Haemoglobin,HMGBN,g/dl,blood,decimal,decimal,male,0,150,Years,12.0,15.0,12.0-15.0,CBC
"Govt. Sardar Begum Hospital, Sialkot",CBC Profile,standard,CBCP,haematology,haem,Haemoglobin,HMGBN,g/dl,blood,decimal,decimal,female,0,150,Years,12.0,15.0,12.0-15.0,CBC
"Govt. Sardar Begum Hospital, Sialkot",CBC Profile,standard,CBCP,haematology,haem,WBC,WBC,per cumm,blood,decimal,decimal,male,0,150,Years,4000,11000,4000-11000,CBC
"Govt. Sardar Begum Hospital, Sialkot",CBC Profile,standard,CBCP,haematology,haem,WBC,WBC,per cumm,blood,decimal,decimal,female,0,150,Years,4000,11000,4000-11000,CBC
"Govt. Sardar Begum Hospital, Sialkot",CBC Profile,standard,CBCP,haematology,haem,Red Cells Count(RBC),RBC,million/cumm,blood,decimal,decimal,male,0,150,Years,4.1,5.9,4.1-5.9,CBC
"Govt. Sardar Begum Hospital, Sialkot",CBC Profile,standard,CBCP,haematology,haem,Red Cells Count(RBC),RBC,million/cumm,blood,decimal,decimal,female,0,150,Years,4.1,5.9,4.1-5.9,CBC
"Govt. Sardar Begum Hospital, Sialkot",CBC Profile,standard,CBCP,haematology,haem,HCT,HCT,g/dl,blood,decimal,decimal,male,0,150,Years,36,46,36-46,CBC
"Govt. Sardar Begum Hospital, Sialkot",CBC Profile,standard,CBCP,haematology,haem,HCT,HCT,g/dl,blood,decimal,decimal,female,0,150,Years,36,46,36-46,CBC
"Govt. Sardar Begum Hospital, Sialkot",CBC Profile,standard,CBCP,haematology,haem,MCV,MCV,fl/red cell,blood,decimal,decimal,male,0,150,Years,76,96,76-96,CBC
"Govt. Sardar Begum Hospital, Sialkot",CBC Profile,standard,CBCP,haematology,haem,MCV,MCV,fl/red cell,blood,decimal,decimal,female,0,150,Years,76,96,76-96,CBC
"Govt. Sardar Begum Hospital, Sialkot",CBC Profile,standard,CBCP,haematology,haem,MCH,MCH,pg/red cell,blood,decimal,decimal,male,0,150,Years,28,32,28-32,CBC
"Govt. Sardar Begum Hospital, Sialkot",CBC Profile,standard,CBCP,haematology,haem,MCH,MCH,pg/red cell,blood,decimal,decimal,female,0,150,Years,28,32,28-32,CBC
"Govt. Sardar Begum Hospital, Sialkot",CBC Profile,standard,CBCP,haematology,haem,MCHC,MCHC,g/dl R.B.C,blood,decimal,decimal,male,0,150,Years,32,36,32-36,CBC
"Govt. Sardar Begum Hospital, Sialkot",CBC Profile,standard,CBCP,haematology,haem,MCHC,MCHC,g/dl R.B.C,blood,decimal,decimal,female,0,150,Years,32,36,32-36,CBC
"Govt. Sardar Begum Hospital, Sialkot",CBC Profile,standard,CBCP,haematology,haem,Neutrophils,NTPH,%,blood,decimal,decimal,male,0,150,Years,40,75,40-75,CBC
"Govt. Sardar Begum Hospital, Sialkot",CBC Profile,standard,CBCP,haematology,haem,Neutrophils,NTPH,%,blood,decimal,decimal,female,0,150,Years,40,75,40-75,CBC
"Govt. Sardar Begum Hospital, Sialkot",CBC Profile,standard,CBCP,haematology,haem,Lymphocytes,LPCT,%,blood,decimal,decimal,male,0,150,Years,20,50,20-50,CBC
"Govt. Sardar Begum Hospital, Sialkot",CBC Profile,standard,CBCP,haematology,haem,Lymphocytes,LPCT,%,blood,decimal,decimal,female,0,150,Years,20,50,20-50,CBC
"Govt. Sardar Begum Hospital, Sialkot",CBC Profile,standard,CBCP,haematology,haem,Eosinophills,ESPH,%,blood,decimal,decimal,male,0,150,Years,01,06,01-06,CBC
"Govt. Sardar Begum Hospital, Sialkot",CBC Profile,standard,CBCP,haematology,haem,Eosinophills,ESPH,%,blood,decimal,decimal,female,0,150,Years,01,06,01-06,CBC
"Govt. Sardar Begum Hospital, Sialkot",CBC Profile,standard,CBCP,haematology,haem,Monocytes,MNCT,%,blood,decimal,decimal,male,0,150,Years,02,06,02-06,CBC
"Govt. Sardar Begum Hospital, Sialkot",CBC Profile,standard,CBCP,haematology,haem,Monocytes,MNCT,%,blood,decimal,decimal,female,0,150,Years,02,06,02-06,CBC
"Govt. Sardar Begum Hospital, Sialkot",CBC Profile,standard,CBCP,haematology,haem,Basophills,BSPH,%,blood,decimal,decimal,male,0,150,Years,0,01,0-01,CBC
"Govt. Sardar Begum Hospital, Sialkot",CBC Profile,standard,CBCP,haematology,haem,Basophills,BSPH,%,blood,decimal,decimal,female,0,150,Years,0,01,0-01,CBC
"Govt. Sardar Begum Hospital, Sialkot",CBC Profile,standard,CBCP,haematology,haem,Platelet ,PLTLT,per cumm,blood,decimal,decimal,male,0,150,Years,"150,000","450,000","150,000-450,000",CBC
"Govt. Sardar Begum Hospital, Sialkot",CBC Profile,standard,CBCP,haematology,haem,Platelet ,PLTLT,per cumm,blood,decimal,decimal,female,0,150,Years,"150,000","450,000","150,000-450,000",CBC
"Govt. Sardar Begum Hospital, Sialkot",CBC Profile,standard,CBCP,haematology,haem,ESR,ESR,mm/hour westerngren,blood,decimal,decimal,male,0,150,Years,0,20,0-20,CBC
"Govt. Sardar Begum Hospital, Sialkot",CBC Profile,standard,CBCP,haematology,haem,ESR,ESR,mm/hour westerngren,blood,decimal,decimal,female,0,150,Years,0,20,0-20,CBC
"Govt. Sardar Begum Hospital, Sialkot",Malaria Parasite,standard,MLP,haematology,haem,Malaria Parasite,MLP,,blood,string,string,male,0,150,Years,"Seen,not Seen","Seen,not Seen","Seen,not Seen",
"Govt. Sardar Begum Hospital, Sialkot",Malaria Parasite,standard,MLP,haematology,haem,Malaria Parasite,MLP,,blood,string,string,female,0,150,Years,"Seen,not Seen","Seen,not Seen","Seen,not Seen",
"Govt. Sardar Begum Hospital, Sialkot",Coagulation Profile,standard,COGP,haematology,haem,PT,PT,seconds,blood,text_area,text_area,male,0,150,Years,,,,
"Govt. Sardar Begum Hospital, Sialkot",Coagulation Profile,standard,COGP,haematology,haem,PT,PT,seconds,blood,text_area,text_area,female,0,150,Years,,,,
"Govt. Sardar Begum Hospital, Sialkot",Coagulation Profile,standard,COGP,haematology,haem,Control,CTRL,seconds,blood,text_area,text_area,male,0,150,Years,,,,
"Govt. Sardar Begum Hospital, Sialkot",Coagulation Profile,standard,COGP,haematology,haem,Control,CTRL,seconds,blood,text_area,text_area,female,0,150,Years,,,,
"Govt. Sardar Begum Hospital, Sialkot",Coagulation Profile,standard,COGP,haematology,haem,INR,INR,,blood,text_area,text_area,male,0,150,Years,,,,
"Govt. Sardar Begum Hospital, Sialkot",Coagulation Profile,standard,COGP,haematology,haem,INR,INR,,blood,text_area,text_area,female,0,150,Years,,,,
"Govt. Sardar Begum Hospital, Sialkot",Coagulation Profile,standard,COGP,haematology,haem,APTT,APTT,seconds,blood,text_area,text_area,male,0,150,Years,,,,
"Govt. Sardar Begum Hospital, Sialkot",Coagulation Profile,standard,COGP,haematology,haem,APTT,APTT,seconds,blood,text_area,text_area,female,0,150,Years,,,,
"Govt. Sardar Begum Hospital, Sialkot",Coagulation Profile,standard,COGP,haematology,haem,Control,CTRL,seconds,blood,text_area,text_area,male,0,150,Years,,,,
"Govt. Sardar Begum Hospital, Sialkot",Coagulation Profile,standard,COGP,haematology,haem,Control,CTRL,seconds,blood,text_area,text_area,female,0,150,Years,,,,
"Govt. Sardar Begum Hospital, Sialkot",Coagulation Profile,standard,COGP,haematology,haem,Bleeding Time,BDT,minutes,blood,decimal,decimal,male,0,150,Years,01,04,01-04,
"Govt. Sardar Begum Hospital, Sialkot",Coagulation Profile,standard,COGP,haematology,haem,Bleeding Time,BDT,minutes,blood,decimal,decimal,female,0,150,Years,01,04,01-04,
"Govt. Sardar Begum Hospital, Sialkot",Coagulation Profile,standard,COGP,haematology,haem,Clotting Time,CLT,minutes,blood,decimal,decimal,male,0,150,Years,06,10,06-10,
"Govt. Sardar Begum Hospital, Sialkot",Coagulation Profile,standard,COGP,haematology,haem,Clotting Time,CLT,minutes,blood,decimal,decimal,female,0,150,Years,06,10,06-10,
